unitType,id,type,typeLen,typeLen1,remark,inletLen
39CQ0608,1,SYW250R,8,8,,5
39CQ0608,1,SYW280R,9,,,5
39CQ0608,1,SYW280RH,9,8,,5
39CQ0609,1,SYW250R,8,,,5
39CQ0609,1,SYW280RH,9,9,,5
39CQ0609,1,SYW280RH,9,,,5
39CQ0711,1,SYW315R,9,9,,5
39CQ0711,1,SYW315RH,9,9,,5
39CQ0711,1,SYW355R,9,9,,5
39CQ0711,1,SYW355RH,9,9,,5
39CQ0811,1,SYW355R,9,10,,5
39CQ0811,1,SYW355RH,9,10,,5
39CQ0811,1,SYW400R,10,10,,5
39CQ0811,1,SYW400RH,10,10,,5
39CQ0912,1,SYW400R,10,11,,5
39CQ0912,1,SYW400RH,10,11,,5
39CQ0912,1,SYW450R,11,11,,5
39CQ0912,1,SYW450RH,11,14,,5
39CQ0913,1,SYW400R,10,11,,5
39CQ0913,1,SYW400RH,10,14,,5
39CQ0913,1,SYW450R,11,13,,5
39CQ0913,1,SYW450RH,11,13,,5
39CQ0914,1,SYW400R,10,16,,5
39CQ0914,1,SYW400RH,10,16,,5
39CQ0914,1,SYW450R,11,17,,5
39CQ0914,1,SYW450RH,11,19,,5
39CQ1015,1,SYW450R,11,17,,5
39CQ1015,1,SYW450RH,11,21,,5
39CQ1015,1,SYW500R,11,23,,5
39CQ1015,1,SYW500RH,11,,,5
39CQ1117,1,SYW500R,11,,,5
39CQ1117,1,SYW500RH,11,,,5
39CQ1117,1,SYW560R,13,,,6
39CQ1117,1,SYW560RH,13,,,6
39CQ1317,1,SYW560R,13,,,6
39CQ1317,1,SYW560RH,13,,,6
39CQ1317,1,SYW630R,14,,,7
39CQ1317,1,SYW630RH,14,,,7
39CQ1418,1,SYW630R,14,,,7
39CQ1418,1,SYW630RH,14,,,7
39CQ1418,1,SYW710R,15,,,7
39CQ1418,1,SYW710RH,15,,,7
39CQ1420,1,SYW710R,15,,,7
39CQ1420,1,SYW710RH,15,,,7
39CQ1420,1,SYW800R,16,,,8
39CQ1420,1,SYW800RH,16,,,8
39CQ1621,1,SYW800R,16,,,8
39CQ1621,1,SYW800RH,16,,,8
39CQ1621,1,SYW900R,16,,,9
39CQ1621,1,SYW900RH,16,,,9
39CQ1822,1,SYW900R,16,,,9
39CQ1822,1,SYW900RH,16,,,9
39CQ1822,1,SYW1000R,18,,,10
39CQ1822,1,SYW1000RH,18,,,10
39CQ1825,1,SYW900R,16,,,9
39CQ1825,1,SYW900RH,16,,,9
39CQ1825,1,SYW1000R,18,,,10
39CQ1825,1,SYW1000RH,18,,,10
39CQ2025,1,SYW1000R,18,,,10
39CQ2025,1,SYW1000RH,18,,,10
39CQ2025,1,SYW1120RH,20,,,11
39CQ2125,1,SYW1000R,18,,,10
39CQ2125,1,SYW1000RH,18,,,10
39CQ2125,1,SYW1120RH,20,,,11
39CQ2226,1,SYW1120RH,20,,,11
39CQ2226,1,SYW1250RH,23,,,13
39CQ2328,1,SYW1120RH,20,,,11
39CQ2328,1,SYW1250RH,23,,,13
39CQ2330,1,SYW1120RH,20,,,11
39CQ2330,1,SYW1250RH,23,,,13
39CQ2333,1,SYW1120RH,20,,,11
39CQ2333,1,SYW1250RH,23,,,13
39XT0608,1,SYW250R,8,8,,5
39XT0608,1,SYW280R,9,,,5
39XT0608,1,SYW280RH,9,8,,5
39XT0609,1,SYW250R,8,,,5
39XT0609,1,SYW280RH,9,9,,5
39XT0609,1,SYW280RH,9,,,5
39XT0711,1,SYW315R,9,9,,5
39XT0711,1,SYW315RH,9,9,,5
39XT0711,1,SYW355R,9,9,,5
39XT0711,1,SYW355RH,9,9,,5
39XT0811,1,SYW355R,9,10,,5
39XT0811,1,SYW355RH,9,10,,5
39XT0811,1,SYW400R,10,10,,5
39XT0811,1,SYW400RH,10,10,,5
39XT0912,1,SYW400R,10,11,,5
39XT0912,1,SYW400RH,10,11,,5
39XT0912,1,SYW450R,11,11,,5
39XT0912,1,SYW450RH,11,14,,5
39XT0913,1,SYW400R,10,11,,5
39XT0913,1,SYW400RH,10,14,,5
39XT0913,1,SYW450R,11,13,,5
39XT0913,1,SYW450RH,11,13,,5
39XT0914,1,SYW400R,10,16,,5
39XT0914,1,SYW400RH,10,16,,5
39XT0914,1,SYW450R,11,17,,5
39XT0914,1,SYW450RH,11,19,,5
39XT1015,1,SYW450R,11,17,,5
39XT1015,1,SYW450RH,11,21,,5
39XT1015,1,SYW500R,11,23,,5
39XT1015,1,SYW500RH,11,,,5
39XT1117,1,SYW500R,11,,,5
39XT1117,1,SYW500RH,11,,,5
39XT1117,1,SYW560R,13,,,6
39XT1117,1,SYW560RH,13,,,6
39XT1317,1,SYW560R,13,,,6
39XT1317,1,SYW560RH,13,,,6
39XT1317,1,SYW630R,14,,,7
39XT1317,1,SYW630RH,14,,,7
39XT1418,1,SYW630R,14,,,7
39XT1418,1,SYW630RH,14,,,7
39XT1418,1,SYW710R,15,,,7
39XT1418,1,SYW710RH,15,,,7
39XT1420,1,SYW710R,15,,,7
39XT1420,1,SYW710RH,15,,,7
39XT1420,1,SYW800R,16,,,8
39XT1420,1,SYW800RH,16,,,8
39XT1621,1,SYW800R,16,,,8
39XT1621,1,SYW800RH,16,,,8
39XT1621,1,SYW900R,16,,,9
39XT1621,1,SYW900RH,16,,,9
39XT1822,1,SYW900R,16,,,9
39XT1822,1,SYW900RH,16,,,9
39XT1822,1,SYW1000R,18,,,10
39XT1822,1,SYW1000RH,18,,,10
39XT1825,1,SYW900R,16,,,9
39XT1825,1,SYW900RH,16,,,9
39XT1825,1,SYW1000R,18,,,10
39XT1825,1,SYW1000RH,18,,,10
39XT2025,1,SYW1000R,18,,,10
39XT2025,1,SYW1000RH,18,,,10
39XT2025,1,SYW1120RH,20,,,11
39XT2125,1,SYW1000R,18,,,10
39XT2125,1,SYW1000RH,18,,,10
39XT2125,1,SYW1120RH,20,,,11
39XT2226,1,SYW1120RH,20,,,11
39XT2226,1,SYW1250RH,23,,,13
39XT2328,1,SYW1120RH,20,,,11
39XT2328,1,SYW1250RH,23,,,13
39XT2330,1,SYW1120RH,20,,,11
39XT2330,1,SYW1250RH,23,,,13
39XT2333,1,SYW1120RH,20,,,11
39XT2333,1,SYW1250RH,23,,,13
39G0608,1,SYW250R,8,8,,5
39G0608,1,SYW280R,9,,,5
39G0608,1,SYW280RH,9,8,,5
39G0609,1,SYW250R,8,,,5
39G0609,1,SYW280RH,9,9,,5
39G0609,1,SYW280RH,9,,,5
39G0711,1,SYW315R,9,9,,5
39G0711,1,SYW315RH,9,9,,5
39G0711,1,SYW355R,9,9,,5
39G0711,1,SYW355RH,9,9,,5
39G0811,1,SYW355R,9,10,,5
39G0811,1,SYW355RH,9,10,,5
39G0811,1,SYW400R,10,10,,5
39G0811,1,SYW400RH,10,10,,5
39G0912,1,SYW400R,10,11,,5
39G0912,1,SYW400RH,10,11,,5
39G0912,1,SYW450R,11,11,,5
39G0912,1,SYW450RH,11,14,,5
39G0913,1,SYW400R,10,11,,5
39G0913,1,SYW400RH,10,14,,5
39G0913,1,SYW450R,11,13,,5
39G0913,1,SYW450RH,11,13,,5
39G0914,1,SYW400R,10,16,,5
39G0914,1,SYW400RH,10,16,,5
39G0914,1,SYW450R,11,17,,5
39G0914,1,SYW450RH,11,19,,5
39G1015,1,SYW450R,11,17,,5
39G1015,1,SYW450RH,11,21,,5
39G1015,1,SYW500R,11,23,,5
39G1015,1,SYW500RH,11,,,5
39G1117,1,SYW500R,11,,,5
39G1117,1,SYW500RH,11,,,5
39G1117,1,SYW560R,13,,,6
39G1117,1,SYW560RH,13,,,6
39G1317,1,SYW560R,13,,,6
39G1317,1,SYW560RH,13,,,6
39G1317,1,SYW630R,14,,,7
39G1317,1,SYW630RH,14,,,7
39G1418,1,SYW630R,14,,,7
39G1418,1,SYW630RH,14,,,7
39G1418,1,SYW710R,15,,,7
39G1418,1,SYW710RH,15,,,7
39G1420,1,SYW710R,15,,,7
39G1420,1,SYW710RH,15,,,7
39G1420,1,SYW800R,16,,,8
39G1420,1,SYW800RH,16,,,8
39G1621,1,SYW800R,16,,,8
39G1621,1,SYW800RH,16,,,8
39G1621,1,SYW900R,16,,,9
39G1621,1,SYW900RH,16,,,9
39G1822,1,SYW900R,16,,,9
39G1822,1,SYW900RH,16,,,9
39G1822,1,SYW1000R,18,,,10
39G1822,1,SYW1000RH,18,,,10
39G1825,1,SYW900R,16,,,9
39G1825,1,SYW900RH,16,,,9
39G1825,1,SYW1000R,18,,,10
39G1825,1,SYW1000RH,18,,,10
39G2025,1,SYW1000R,18,,,10
39G2025,1,SYW1000RH,18,,,10
39G2025,1,SYW1120RH,20,,,11
39G2125,1,SYW1000R,18,,,10
39G2125,1,SYW1000RH,18,,,10
39G2125,1,SYW1120RH,20,,,11
39G2226,1,SYW1120RH,20,,,11
39G2226,1,SYW1250RH,23,,,13
39G2328,1,SYW1120RH,20,,,11
39G2328,1,SYW1250RH,23,,,13
39G2330,1,SYW1120RH,20,,,11
39G2330,1,SYW1250RH,23,,,13
39G2333,1,SYW1120RH,20,,,11
39G2333,1,SYW1250RH,23,,,13