fanType,filterFormat,filterSize,filterNum
39CQ0608,2,12X20,2
39CQ0608,3,4X6,1
39CQ0608,5,24X20,1
39CQ0609,2,16X20,2
39CQ0609,3,4X4,2
39CQ0609,5,16X20,2
39CQ0711,2,12X24,3
39CQ0711,3,5X4,1
39CQ0711,3,5X5,1
39CQ0711,5,20X24,2
39CQ0811,2,12X24,2
39CQ0811,2,16X24,1
39CQ0811,3,6X4,1
39CQ0811,3,6X5,1
39CQ0811,5,20X24,2
39CQ0912,2,20X16,2
39CQ0912,2,24X16,2
39CQ0912,3,7X5,2
39CQ0912,5,20X16,2
39CQ0912,5,24X16,2
39CQ0913,2,20X16,2
39CQ0913,2,24X16,2
39CQ0913,3,7X4,3
39CQ0913,5,20X16,2
39CQ0913,5,24X16,2
39CQ0914,2,24X16,4
39CQ0914,3,7X4,3
39CQ0914,5,24X16,4
39CQ1015,2,24X12,2
39CQ1015,2,24X24,2
39CQ1015,3,4X4,4
39CQ1015,3,4X5,2
39CQ1015,5,16X16,2
39CQ1015,5,20X16,4
39CQ1117,2,16X24,1
39CQ1117,2,24X16,2
39CQ1117,2,24X24,2
39CQ1117,3,4X5,3
39CQ1117,3,5X5,3
39CQ1117,5,20X20,4
39CQ1117,5,24X20,2
39CQ1317,2,12X24,2
39CQ1317,2,24X24,4
39CQ1317,3,5X5,3
39CQ1317,3,6X5,3
39CQ1317,5,20X24,4
39CQ1317,5,24X24,2
39CQ1418,2,16X24,2
39CQ1418,2,24X24,4
39CQ1418,3,6X5,4
39CQ1418,3,6X6,2
39CQ1418,5,20X24,2
39CQ1418,5,24X24,4
39CQ1420,2,24X24,6
39CQ1420,3,6X6,6
39CQ1420,5,24X24,6
39CQ1621,2,24X12,3
39CQ1621,2,24X24,6
39CQ1621,3,7X4,2
39CQ1621,3,7X5,6
39CQ1621,5,20X20,12
39CQ1822,2,12X24,2
39CQ1822,2,24X16,3
39CQ1822,2,24X24,6
39CQ1822,3,4X5,4
39CQ1822,3,6X5,8
39CQ1822,5,20X20,9
39CQ1822,5,24X20,3
39CQ1825,2,24X12,4
39CQ1825,2,24X24,8
39CQ1825,3,4X4,2
39CQ1825,3,4X5,3
39CQ1825,3,6X4,4
39CQ1825,3,6X5,6
39CQ1825,5,24X20,12
39CQ2025,2,24X24,12
39CQ2025,3,4X4,2
39CQ2025,3,4X5,3
39CQ2025,3,7X4,4
39CQ2025,3,7X5,6
39CQ2025,5,24X24,12
39CQ2125,2,24X24,12
39CQ2125,3,5X4,2
39CQ2125,3,5X5,3
39CQ2125,3,7X4,4
39CQ2125,3,7X5,6
39CQ2125,5,24X24,12
39CQ2226,2,24X12,4
39CQ2226,2,24X24,12
39CQ2226,3,6X4,1
39CQ2226,3,6X5,4
39CQ2226,3,7X4,2
39CQ2226,3,7X5,8
39CQ2226,5,20X20,20
39CQ2328,2,12X24,3
39CQ2328,2,24X12,4
39CQ2328,2,24X24,12
39CQ2328,3,5X4,12
39CQ2328,3,5X5,6
39CQ2328,3,6X4,4
39CQ2328,3,6X5,2
39CQ2328,5,20X20,9
39CQ2328,5,20X24,3
39CQ2328,5,24X20,6
39CQ2328,5,24X24,2
39CQ2330,2,12X24,3
39CQ2330,2,24X12,4
39CQ2330,2,24X24,12
39CQ2330,3,5X4,6
39CQ2330,3,5X5,12
39CQ2330,3,6X4,2
39CQ2330,3,6X5,4
39CQ2330,5,20X20,3
39CQ2330,5,20X24,1
39CQ2330,5,24X20,12
39CQ2330,5,24X24,4
39CQ2333,2,24X16,5
39CQ2333,2,24X24,15
39CQ2333,3,5X4,12
39CQ2333,3,5X5,9
39CQ2333,3,6X4,4
39CQ2333,3,6X5,3
39CQ2333,5,24X20,15
39CQ2333,5,24X24,5
39CQ2532,2,24X24,20
39CQ2832,2,24X12,5
39CQ2832,2,24X24,20
39CQ3132,2,24X24,25
39CQ3438,2,24X12,6
39CQ3438,2,24X24,30
39CQ3841,2,24X12,6
39CQ3841,2,24X24,36
39CQ4444,2,24X24,49
39CQ4750,2,24X12,8
39CQ4750,2,24X24,56
39G0608,2,12X20,2
39G0608,3,4X6,1
39G0608,5,24X20,1
39G0609,2,16X20,2
39G0609,3,4X4,2
39G0609,5,16X20,2
39G0711,2,12X24,3
39G0711,3,5X4,1
39G0711,3,5X5,1
39G0711,5,20X24,2
39G0811,2,12X24,2
39G0811,2,16X24,1
39G0811,3,6X4,1
39G0811,3,6X5,1
39G0811,5,20X24,2
39G0912,2,20X16,2
39G0912,2,24X16,2
39G0912,3,7X5,2
39G0912,5,20X16,2
39G0912,5,24X16,2
39G0913,2,20X16,2
39G0913,2,24X16,2
39G0913,3,7X4,3
39G0913,5,20X16,2
39G0913,5,24X16,2
39G0914,2,24X16,4
39G0914,3,7X4,3
39G0914,5,24X16,4
39G1015,2,24X12,2
39G1015,2,24X24,2
39G1015,3,4X4,4
39G1015,3,4X5,2
39G1015,5,16X16,2
39G1015,5,20X16,4
39G1117,2,16X24,1
39G1117,2,24X16,2
39G1117,2,24X24,2
39G1117,3,4X5,3
39G1117,3,5X5,3
39G1117,5,20X20,4
39G1117,5,24X20,2
39G1317,2,12X24,2
39G1317,2,24X24,4
39G1317,3,5X5,3
39G1317,3,6X5,3
39G1317,5,20X24,4
39G1317,5,24X24,2
39G1418,2,16X24,2
39G1418,2,24X24,4
39G1418,3,6X5,4
39G1418,3,6X6,2
39G1418,5,20X24,2
39G1418,5,24X24,4
39G1420,2,24X24,6
39G1420,3,6X6,6
39G1420,5,24X24,6
39G1621,2,24X12,3
39G1621,2,24X24,6
39G1621,3,7X4,2
39G1621,3,7X5,6
39G1621,5,20X20,12
39G1822,2,12X24,2
39G1822,2,24X16,3
39G1822,2,24X24,6
39G1822,3,4X5,4
39G1822,3,6X5,8
39G1822,5,20X20,9
39G1822,5,24X20,3
39G1825,2,24X12,4
39G1825,2,24X24,8
39G1825,3,4X4,2
39G1825,3,4X5,3
39G1825,3,6X4,4
39G1825,3,6X5,6
39G1825,5,24X20,12
39G2025,2,24X24,12
39G2025,3,4X4,2
39G2025,3,4X5,3
39G2025,3,7X4,4
39G2025,3,7X5,6
39G2025,5,24X24,12
39G2125,2,24X24,12
39G2125,3,5X4,2
39G2125,3,5X5,3
39G2125,3,7X4,4
39G2125,3,7X5,6
39G2125,5,24X24,12
39G2226,2,24X12,4
39G2226,2,24X24,12
39G2226,3,6X4,1
39G2226,3,6X5,4
39G2226,3,7X4,2
39G2226,3,7X5,8
39G2226,5,20X20,20
39G2328,2,12X24,3
39G2328,2,24X12,4
39G2328,2,24X24,12
39G2328,3,5X4,12
39G2328,3,5X5,6
39G2328,3,6X4,4
39G2328,3,6X5,2
39G2328,5,20X20,9
39G2328,5,20X24,3
39G2328,5,24X20,6
39G2328,5,24X24,2
39G2330,2,12X24,3
39G2330,2,24X12,4
39G2330,2,24X24,12
39G2330,3,5X4,6
39G2330,3,5X5,12
39G2330,3,6X4,2
39G2330,3,6X5,4
39G2330,5,20X20,3
39G2330,5,20X24,1
39G2330,5,24X20,12
39G2330,5,24X24,4
39G2333,2,24X16,5
39G2333,2,24X24,15
39G2333,3,5X4,12
39G2333,3,5X5,9
39G2333,3,6X4,4
39G2333,3,6X5,3
39G2333,5,24X20,15
39G2333,5,24X24,5
39G2532,2,24X24,20
39G2832,2,24X12,5
39G2832,2,24X24,20
39G3132,2,24X24,25
39G3438,2,24X12,6
39G3438,2,24X24,30
39G3841,2,24X12,6
39G3841,2,24X24,36
39G4444,2,24X24,49
39G4750,2,24X12,8
39G4750,2,24X24,56
39XT0608,2,12X20,2
39XT0608,3,4X6,1
39XT0608,5,24X20,1
39XT0609,2,16X20,2
39XT0609,3,4X4,2
39XT0609,5,16X20,2
39XT0711,2,12X24,3
39XT0711,3,5X4,1
39XT0711,3,5X5,1
39XT0711,5,20X24,2
39XT0811,2,12X24,2
39XT0811,2,16X24,1
39XT0811,3,6X4,1
39XT0811,3,6X5,1
39XT0811,5,20X24,2
39XT0912,2,20X16,2
39XT0912,2,24X16,2
39XT0912,3,7X5,2
39XT0912,5,20X16,2
39XT0912,5,24X16,2
39XT0913,2,20X16,2
39XT0913,2,24X16,2
39XT0913,3,7X4,3
39XT0913,5,20X16,2
39XT0913,5,24X16,2
39XT0914,2,24X16,4
39XT0914,3,7X4,3
39XT0914,5,24X16,4
39XT1015,2,24X12,2
39XT1015,2,24X24,2
39XT1015,3,4X4,4
39XT1015,3,4X5,2
39XT1015,5,16X16,2
39XT1015,5,20X16,4
39XT1117,2,16X24,1
39XT1117,2,24X16,2
39XT1117,2,24X24,2
39XT1117,3,4X5,3
39XT1117,3,5X5,3
39XT1117,5,20X20,4
39XT1117,5,24X20,2
39XT1317,2,12X24,2
39XT1317,2,24X24,4
39XT1317,3,5X5,3
39XT1317,3,6X5,3
39XT1317,5,20X24,4
39XT1317,5,24X24,2
39XT1418,2,16X24,2
39XT1418,2,24X24,4
39XT1418,3,6X5,4
39XT1418,3,6X6,2
39XT1418,5,20X24,2
39XT1418,5,24X24,4
39XT1420,2,24X24,6
39XT1420,3,6X6,6
39XT1420,5,24X24,6
39XT1621,2,24X12,3
39XT1621,2,24X24,6
39XT1621,3,7X4,2
39XT1621,3,7X5,6
39XT1621,5,20X20,12
39XT1822,2,12X24,2
39XT1822,2,24X16,3
39XT1822,2,24X24,6
39XT1822,3,4X5,4
39XT1822,3,6X5,8
39XT1822,5,20X20,9
39XT1822,5,24X20,3
39XT1825,2,24X12,4
39XT1825,2,24X24,8
39XT1825,3,4X4,2
39XT1825,3,4X5,3
39XT1825,3,6X4,4
39XT1825,3,6X5,6
39XT1825,5,24X20,12
39XT2025,2,24X24,12
39XT2025,3,4X4,2
39XT2025,3,4X5,3
39XT2025,3,7X4,4
39XT2025,3,7X5,6
39XT2025,5,24X24,12
39XT2125,2,24X24,12
39XT2125,3,5X4,2
39XT2125,3,5X5,3
39XT2125,3,7X4,4
39XT2125,3,7X5,6
39XT2125,5,24X24,12
39XT2226,2,24X12,4
39XT2226,2,24X24,12
39XT2226,3,6X4,1
39XT2226,3,6X5,4
39XT2226,3,7X4,2
39XT2226,3,7X5,8
39XT2226,5,20X20,20
39XT2328,2,12X24,3
39XT2328,2,24X12,4
39XT2328,2,24X24,12
39XT2328,3,5X4,12
39XT2328,3,5X5,6
39XT2328,3,6X4,4
39XT2328,3,6X5,2
39XT2328,5,20X20,9
39XT2328,5,20X24,3
39XT2328,5,24X20,6
39XT2328,5,24X24,2
39XT2330,2,12X24,3
39XT2330,2,24X12,4
39XT2330,2,24X24,12
39XT2330,3,5X4,6
39XT2330,3,5X5,12
39XT2330,3,6X4,2
39XT2330,3,6X5,4
39XT2330,5,20X20,3
39XT2330,5,20X24,1
39XT2330,5,24X20,12
39XT2330,5,24X24,4
39XT2333,2,24X16,5
39XT2333,2,24X24,15
39XT2333,3,5X4,12
39XT2333,3,5X5,9
39XT2333,3,6X4,4
39XT2333,3,6X5,3
39XT2333,5,24X20,15
39XT2333,5,24X24,5
39XT2532,2,24X24,20
39XT2832,2,24X12,5
39XT2832,2,24X24,20
39XT3132,2,24X24,25
39XT3438,2,24X12,6
39XT3438,2,24X24,30
39XT3841,2,24X12,6
39XT3841,2,24X24,36
39XT4444,2,24X24,49
39XT4750,2,24X12,8
39XT4750,2,24X24,56
