filterF,materialE,windSpeed,beginResi,averResi,endResi
2,H10,0,0 ,0 ,0 
2,H10,1.5,103 ,427 ,750
2,H10,1.75,121 ,435 ,750
2,H10,2,138 ,444 ,750
2,H10,2.25,155 ,453 ,750
2,H10,2.5,172 ,461 ,750
2,H10,2.75,190 ,470 ,750
2,H10,3,207 ,478 ,750
2,H10,3.25,224 ,487 ,750
2,H10,3.5,241 ,496 ,750
2,H10,3.75,259 ,504 ,750
2,H10,4,276 ,513 ,750
2,H11,0,0 ,0 ,0 
2,H11,1.5,119 ,434 ,750
2,H11,1.75,139 ,444 ,750
2,H11,2,159 ,454 ,750
2,H11,2.25,178 ,464 ,750
2,H11,2.5,198 ,474 ,750
2,H11,2.75,218 ,484 ,750
2,H11,3,238 ,494 ,750
2,H11,3.25,258 ,504 ,750
2,H11,3.5,278 ,514 ,750
2,H11,3.75,297 ,524 ,750
2,H11,4,317 ,534 ,750
2,H12,0,0 ,0 ,0 
2,H12,1.5,124 ,312 ,500
2,H12,1.75,145 ,322 ,500
2,H12,2,166 ,333 ,500
2,H12,2.25,186 ,343 ,500
2,H12,2.5,207 ,353 ,500
2,H12,2.75,228 ,364 ,500
2,H12,3,248 ,374 ,500
2,H12,3.25,269 ,384 ,500
2,H12,3.5,290 ,395 ,500
2,H12,3.75,310 ,405 ,500
2,H12,4,331 ,416 ,500
2,H13,0,0 ,0 ,0 
2,H13,1.5,129 ,315 ,500
2,H13,1.75,151 ,325 ,500
2,H13,2,172 ,336 ,500
2,H13,2.25,194 ,347 ,500
2,H13,2.5,216 ,358 ,500
2,H13,2.75,237 ,369 ,500
2,H13,3,259 ,379 ,500
2,H13,3.25,280 ,390 ,500
2,H13,3.5,302 ,401 ,500
2,H13,3.75,323 ,412 ,500
2,H13,4,345 ,422 ,500
2,H14,0,0 ,0 ,0 
2,H14,1.5,155 ,328 ,500
2,H14,1.75,181 ,341 ,500
2,H14,2,207 ,353 ,500
2,H14,2.25,233 ,366 ,500
2,H14,2.5,259 ,379 ,500
2,H14,2.75,284 ,392 ,500
2,H14,3,310 ,405 ,500
2,H14,3.25,336 ,418 ,500
2,H14,3.5,362 ,431 ,500
2,H14,3.75,388 ,444 ,500
2,H14,4,414 ,457 ,500
1,H10,0,0 ,0 ,0 
1,H10,1.5,111 ,306 ,500
1,H10,1.75,130 ,315 ,500
1,H10,2,148 ,324 ,500
1,H10,2.25,167 ,333 ,500
1,H10,2.5,185 ,343 ,500
1,H10,2.75,204 ,352 ,500
1,H10,3,222 ,361 ,500
1,H10,3.25,241 ,370 ,500
1,H10,3.5,259 ,380 ,500
1,H10,3.75,278 ,389 ,500
1,H10,4,296 ,398 ,500
1,H11,0,0 ,0 ,0 
1,H11,1.5,120 ,310 ,500
1,H11,1.75,140 ,320 ,500
1,H11,2,160 ,330 ,500
1,H11,2.25,180 ,340 ,500
1,H11,2.5,200 ,350 ,500
1,H11,2.75,220 ,360 ,500
1,H11,3,240 ,370 ,500
1,H11,3.25,260 ,380 ,500
1,H11,3.5,280 ,390 ,500
1,H11,3.75,300 ,400 ,500
1,H11,4,320 ,410 ,500
1,H12,0,0 ,0 ,0 
1,H12,1,100 ,300 ,500
1,H12,1.75,175 ,338 ,500
1,H12,2,200 ,350 ,500
1,H12,2.25,225 ,363 ,500
1,H12,2.5,250 ,375 ,500
1,H12,2.75,275 ,388 ,500
1,H12,3,300 ,400 ,500
1,H12,3.25,325 ,413 ,500
1,H12,3.5,350 ,425 ,500
1,H12,3.75,375 ,438 ,500
1,H12,4,400 ,450 ,500
1,H13,0,0 ,0 ,0 
1,H13,1.5,168 ,334 ,500
1,H13,1.75,196 ,348 ,500
1,H13,2,224 ,362 ,500
1,H13,2.25,252 ,376 ,500
1,H13,2.5,280 ,390 ,500
1,H13,2.75,308 ,404 ,500
1,H13,3,336 ,418 ,500
1,H13,3.25,364 ,432 ,500
1,H13,3.5,392 ,446 ,500
1,H13,3.75,420 ,460 ,500
1,H13,4,448 ,474 ,500
1,H14,0,0 ,0 ,0 
1,H14,1.5,192 ,346 ,500
1,H14,1.75,224 ,362 ,500
1,H14,2,256 ,378 ,500
1,H14,2.25,288 ,394 ,500
1,H14,2.5,320 ,410 ,500
1,H14,2.75,352 ,426 ,500
1,H14,3,384 ,442 ,500
1,H14,3.25,416 ,458 ,500
1,H14,3.5,448 ,474 ,500
1,H14,3.75,480 ,490 ,500
1,H14,4,512 ,506 ,500
2,A,0,0 ,0 ,0 
2,A,1.5,124 ,312 ,500
2,A,1.75,145 ,322 ,500
2,A,2,166 ,333 ,500
2,A,2.25,186 ,343 ,500
2,A,2.5,207 ,353 ,500
2,A,2.75,228 ,364 ,500
2,A,3,248 ,374 ,500
2,A,3.25,269 ,384 ,500
2,A,3.5,290 ,395 ,500
2,A,3.75,310 ,405 ,500
2,A,4,331 ,416 ,500
2,B,0,0 ,0 ,0 
2,B,1.5,129 ,315 ,500
2,B,1.75,151 ,325 ,500
2,B,2,172 ,336 ,500
2,B,2.25,194 ,347 ,500
2,B,2.5,216 ,358 ,500
2,B,2.75,237 ,369 ,500
2,B,3,259 ,379 ,500
2,B,3.25,280 ,390 ,500
2,B,3.5,302 ,401 ,500
2,B,3.75,323 ,412 ,500
2,B,4,345 ,422 ,500
2,C,0,0 ,0 ,0 
2,C,1.5,155 ,328 ,500
2,C,1.75,181 ,341 ,500
2,C,2,207 ,353 ,500
2,C,2.25,233 ,366 ,500
2,C,2.5,259 ,379 ,500
2,C,2.75,284 ,392 ,500
2,C,3,310 ,405 ,500
2,C,3.25,336 ,418 ,500
2,C,3.5,362 ,431 ,500
2,C,3.75,388 ,444 ,500
2,C,4,414 ,457 ,500
1,A,0,0 ,0 ,0 
1,A,1.5,150 ,325 ,500
1,A,1.75,175 ,338 ,500
1,A,2,200 ,350 ,500
1,A,2.25,225 ,363 ,500
1,A,2.5,250 ,375 ,500
1,A,2.75,275 ,388 ,500
1,A,3,300 ,400 ,500
1,A,3.25,325 ,413 ,500
1,A,3.5,350 ,425 ,500
1,A,3.75,375 ,438 ,500
1,A,4,400 ,450 ,500
1,B,0,0 ,250 ,500
1,B,1,112 ,306 ,500
1,B,1.75,196 ,348 ,500
1,B,2,224 ,362 ,500
1,B,2.25,252 ,376 ,500
1,B,2.5,280 ,390 ,500
1,B,2.75,308 ,404 ,500
1,B,3,336 ,418 ,500
1,B,3.25,364 ,432 ,500
1,B,3.5,392 ,446 ,500
1,B,3.75,420 ,460 ,500
1,B,4,448 ,474 ,500
1,C,0,0 ,0 ,0 
1,C,1.5,192 ,346 ,500
1,C,1.75,224 ,362 ,500
1,C,2,256 ,378 ,500
1,C,2.25,288 ,394 ,500
1,C,2.5,320 ,410 ,500
1,C,2.75,352 ,426 ,500
1,C,3,384 ,442 ,500
1,C,3.25,416 ,458 ,500
1,C,3.5,448 ,474 ,500
1,C,3.75,480 ,490 ,500
1,C,4,512 ,506 ,500
