[
  [ "non_standard_option_colon", "", "", "", "", "", "", "" ],
  [ "pressure_guage_colon", "ns.section.filter.nsPressureGuage", "pressure_guage_model_colon", "ns.section.filter.nsPressureGuageModel", "", "", "difference_of_prices_colon", "ns.section.filter.nsPressureGuagePrice" ],  
  [ "Memo:", "ns.section.filter.MEMO", "", "", "", "", "difference_of_prices_colon", "ns.section.filter.Price" ]
]
