[
  [ "non_standard_option_colon", "", "", "", "", "", "", "" ],
  [ "change_supplier_colon", "ns.section.steamHumidifier.nsChangeSupplier", "", "ns.section.steamHumidifier.nsSupplier", "ns.section.steamHumidifier.nsSupplier1", "", "", "" ],
  [ "", "detail_colon", "meta.section.steamHumidifier.ControlM", "humidification_volume_colon", "ns.section.steamHumidifier.nsHumidificationQ", "", "difference_of_prices_colon", "ns.section.steamHumidifier.nsSupplierPrice" ],
  [ "Memo:", "ns.section.steamHumidifier.MEMO", "", "", "", "", "difference_of_prices_colon", "ns.section.steamHumidifier.Price" ]
]
