[ 
  [ "air_parameter_summer", "", "", "heating_volume_summer", "KW", "meta.section.electricHeatingCoil.SHeatQ" ],
  [ "inlet_wind_db_colon", "dC", "meta.section.electricHeatingCoil.SInDryBulbT", "outlet_air_db_colon", "dC", "meta.section.electricHeatingCoil.SOutDryBulbT" ],
  [ "inlet_wind_wb_rh_colon", "dC/%", "meta.section.electricHeatingCoil.SInWetBulbT/meta.section.electricHeatingCoil.SInRelativeT", "outlet_air_wb_rh_colon", "dC/%", "meta.section.electricHeatingCoil.SOutWetBulbT/meta.section.electricHeatingCoil.SOutRelativeT" ],
  [ "", "", "", "", "", "" ]
]
