[ 
  [ "outlet_air_form_colon", "", "meta.section.discharge.OutletDirection", "section_length_colon", "M", "meta.section.discharge.sectionL" ],
  [ "air_resistance_colon", "Pa", "meta.section.discharge.Resistance", "", "", "" ],
  [ "", "", "", "", "", "" ]
]
