[ 
  [ "mix_form_colon", "", "meta.section.mix.style", "", "", "", "" ],
  [ "valve_size_colon", "", "", "valve_torque_colon", "", "", "" ],
  [ "top_return_air_colon", "mm", "meta.section.mix.returnTopT", "", "top_return_air_colon", "Nm", "meta.section.mix.returnTopV" ],
  [ "botm_return_air", "mm", "meta.section.mix.returnButtomT", "", "botm_return_air", "Nm", "meta.section.mix.returnButtomV" ],
  [ "left_return_air_colon", "mm", "meta.section.mix.returnLeftT", "", "left_return_air_colon", "Nm", "meta.section.mix.returnLeftV" ],
  [ "right_return_air_colon", "mm", "meta.section.mix.returnRightT", "", "right_return_air_colon", "Nm", "meta.section.mix.returnRightV" ],
  [ "back_return_air_colon", "mm", "meta.section.mix.returnBackT", "", "back_return_air_colon", "Nm", "meta.section.mix.returnBackV" ]
]
