[ 
  [ "air_parameter_summer", "", "", "humidification_parameter_summer", "", "" ],
  [ "inlet_wind_db_colon", "℃", "meta.section.electrodeHumidifier.SInDryBulbT", "humidification_volume_colon", "Kg/h", "meta.section.electrodeHumidifier.SHumidificationQ" ],
  [ "inlet_wind_wb_rh_colon", "℃/%", "meta.section.electrodeHumidifier.SInWetBulbT/meta.section.electrodeHumidifier.SInRelativeT", "", "", "" ],
  [ "outlet_air_db_colon", "℃", "meta.section.electrodeHumidifier.SOutDryBulbT", "", "", "" ],
  [ "outlet_air_wb_rh_colon", "℃/%", "meta.section.electrodeHumidifier.SOutWetBulbT/meta.section.electrodeHumidifier.SOutRelativeT", "", "", "" ],
  [ "", "", "", "", "", "" ]
]
