[ 
  [ "function_colon", "", "meta.section.access.functionS", "section_length_colon", "M", "meta.section.access.sectionL" ],
  [ "air_resistance_colon", "Pa", "meta.section.access.Resistance", "", "", "" ],
  [ "", "", "", "", "", "" ]
]
