[ 
  [ "coil_model_description_colon", "meta.section.coolingCoil.modeNote", "", "", "", "", "" ],
  [ "coil_wire_description_colon", "", "meta.section.coolingCoil.coilNote", "", "", "", "" ],
  [ "coil_height_length_colon", "mm", "meta.section.coolingCoil.heightLength", "", "", "", "" ],
  [ "tube_spacing_colon", "mm", "meta.section.coolingCoil.interval", "", "copper_tube_diameter_colon", "mm", "meta.section.coolingCoil.tubeDiameter" ],
  [ "min_fin_surface_temp_colon", "", "meta.section.coolingCoil.finTem", "", "", "", "" ],
  [ "min_tube_surface_temp_colon", "", "meta.section.coolingCoil.cpTem", "", "", "", "" ],
  [ " ", "", "", "", "", "", "" ],
  [ "coil_refrigerant_colon", "meta.section.coolingCoil.Sconcentration", "meta.section.coolingCoil.Scoolant", "", "section_length_colon", "M", "meta.section.coolingCoil.sectionL" ],
  [ "air_volume_colon", "m³/h", "meta.ahu.airVolume", "", "face_wind_speed_colon", "m/s", "meta.section.coolingCoil.Svelocity" ],
  [ "row_number_colon", "", "meta.section.coolingCoil.rows", "", "fin_type_colon", "", "meta.section.coolingCoil.finType" ],
  [ "fin_distance_colon", "", "meta.section.coolingCoil.finDensity", "", "inlet_outlet_water_pipe_set_material_colon", "", "meta.section.coolingCoil.pipe/meta.section.coolingCoil.waterCollecting" ],
  [ "circuit_colon", "", "meta.section.coolingCoil.circuit", "", "pipe_connector_colon", "", "meta.section.coolingCoil.connections" ],
  [ "drift_eliminator_colon", "", "meta.section.coolingCoil.eliminator", "", "water_tray_material_colon", "", "meta.section.coolingCoil.drainpanMaterial" ],
  [ "drift_eliminator_resistance_colon", "Pa", "meta.section.coolingCoil.driftEliminatorResistance", "", "water_tray_form_colon", "", "meta.section.coolingCoil.drainpanType" ],
  [ "coil_frame_material_colon", "", "meta.section.coolingCoil.coilFrameMaterial", "", "coil_bracket_material_colon", "", "meta.section.coolingCoil.coilFrameMaterialNote" ],
  [ " ", "", "", "", "", "", "" ],
  [ "air_parameter_summer", "", "", "", "water_side_parameter_colon_summer", "", "" ],
  [ "inlet_wind_db_colon", "℃", "meta.section.coolingCoil.SInDryBulbT", "", "cooling_volume_colon", "kW", "meta.section.coolingCoil.SreturnColdQ" ],
  [ "inlet_wind_wb_rh_colon", "℃/%", "meta.section.coolingCoil.SInWetBulbT/meta.section.coolingCoil.SInRelativeT", "", "show_cold_colon", "kW", "meta.section.coolingCoil.SreturnSensibleCapacity" ],
  [ "outlet_air_db_colon", "℃", "meta.section.coolingCoil.SOutDryBulbT", "", "inlet_water_temperature_colon", "℃", "meta.section.coolingCoil.SreturnEnteringFluidTemperature" ],
  [ "outlet_air_wb_rh_colon", "℃/%", "meta.section.coolingCoil.SOutWetBulbT/meta.section.coolingCoil.SOutRelativeT", "", "water_temperature_rise_colon", "℃", "meta.section.coolingCoil.SWTAScend" ],
  [ "air_resistance_colon", "Pa", "meta.section.coolingCoil.SAirResistance", "", "water_flow_volume_colon", "L/s", "meta.section.coolingCoil.SreturnWaterFlow" ],
  [ "", "", "", "", "water_resistance_colon", "kPa", "meta.section.coolingCoil.SwaterResistance" ],
  [ "", "", "", "", "water_flow_speed_colon", "m/s", "meta.section.coolingCoil.Sfluidvelocity" ]
]
