[
  [ " ", "", "", "", "", "", "" ],
  [ "air_parameter_winter", "", "", "", "water_side_parameter_colon_winter", "", "" ],
  [ "inlet_wind_db_colon", "℃", "meta.section.coolingCoil.WInDryBulbT", "", "heating_volume_colon", "kW", "meta.section.coolingCoil.WreturnHeatQ" ],
  [ "inlet_wind_wb_rh_colon", "℃/%", "meta.section.coolingCoil.WInWetBulbT/meta.section.coolingCoil.WInRelativeT", "", "inlet_water_temperature_colon", "℃", "meta.section.coolingCoil.WreturnEnteringFluidTemperature" ],
  [ "outlet_air_db_colon", "℃", "meta.section.coolingCoil.WOutDryBulbT", "", "water_temperature_difference_colon", "℃", "meta.section.coolingCoil.WWTAScend" ],
  [ "outlet_air_wb_rh_colon", "℃/%", "meta.section.coolingCoil.WOutWetBulbT/meta.section.coolingCoil.WOutRelativeT", "", "water_flow_volume_colon", "L/s", "meta.section.coolingCoil.WreturnWaterFlow" ],
  [ "air_resistance_colon", "Pa", "meta.section.coolingCoil.WAirResistance", "", "water_resistance_colon", "kPa", "meta.section.coolingCoil.WwaterResistance" ],
  [ "", "", "", "", "water_flow_speed_colon", "m/s", "meta.section.coolingCoil.Wfluidvelocity" ],
  [ "", "", "", "", "", "", "" ]
]
