[ 
  [ "unit_delivery_mode_colon", "", "meta.ahu.delivery", "", "", "" ],
  [ "unit_package_colon", "", "meta.ahu.package", "", "", "" ],
  [ "packing_section_colon", "serial_number", "length_mm", "wide_mm", "high_mm", "weight_kg" ]
]
