[
  [ "absorber_position_colon", "", "", "", "", "", "", "", "", "", "" ],
  [ "position_colon", "A", "B", "C", "D", "E", "F", "G", "H", "I", "J" ],
  [ "absorber_colon", "meta.section.fan.positionA", "meta.section.fan.positionB", "meta.section.fan.positionC", "meta.section.fan.positionD", "meta.section.fan.positionE", "meta.section.fan.positionF", "meta.section.fan.positionG", "meta.section.fan.positionH", "meta.section.fan.positionI", "meta.section.fan.positionJ" ]
]
