[ 
  [ "humidification_method_colon", "", "meta.section.wetfilmHumidifier.style", "section_length_colon", "M", "meta.section.wetfilmHumidifier.sectionL" ],
  [ "air_volume_colon", "m3/h", "meta.ahu.airVolume", "supplier_model_colon", "", "meta.section.wetfilmHumidifier.supplier" ],
  [ "wet_film_thickness_colon", "mm", "meta.section.wetfilmHumidifier.Thickness", "water_tray_material_colon", "", "meta.section.wetfilmHumidifier.material" ],
  [ "air_resistance_colon", "Pa", "meta.section.wetfilmHumidifier.Resistance", "installation_section_colon", "", "meta.section.wetfilmHumidifier.install" ],
  [ "water_supply_quality_colon", "", "meta.section.wetfilmHumidifier.waterQuality", "water_volume", "kg/h", "meta.section.wetfilmHumidifier.WaterQuantity" ],
  [ "", "", "", "", "", "" ]
]
