[ 
  [ "air_parameter_winter", "", "", "steam_parameter_winter", "", "" ],
  [ "inlet_wind_db_colon", "dC", "meta.section.steamHumidifier.WInDryBulbT", "humidification_volume_colon", "Kg/h", "meta.section.steamHumidifier.WHumidificationQ" ],
  [ "inlet_wind_wb_rh_colon", "dC/%", "meta.section.steamHumidifier.WInWetBulbT/meta.section.steamHumidifier.WInRelativeT", "", "", "" ],
  [ "outlet_air_db_colon", "dC", "meta.section.steamHumidifier.WOutDryBulbT", "", "", "" ],
  [ "outlet_air_wb_rh_colon", "dC/%", "meta.section.steamHumidifier.WOutWetBulbT/meta.section.steamHumidifier.WOutRelativeT", "", "", "" ],
  [ "", "", "", "", "", "" ]
]
