[ 
  [ "silence_level_colon", "meta.section.attenuator.Deadening", "meta.section.attenuator.Type", "", "", "section_length_colon", "M", "meta.section.attenuator.sectionL", "", "" ],
  [ "air_volume_colon", "m3/h", "meta.ahu.airVolume", "", "", "air_resistance_colon", "Pa ", "meta.section.attenuator.Resistance", "", "" ],
  [ "silence_insertion_loss_colon", "", "", "", "", "", "", "", "", "" ],
  [ "frequency_spectrum", "Hz", "63", "125", "250", "500", "1000", "2000", "4000", "8000" ],
  [ "sound_power_level", "dB", "5", "10", "13", "14", "16", "16", "12", "10" ],
  [ "", "", "", "", "", "", "", "", "", "" ]
]
