{
  "meta.section.filter.filterEfficiency": {
    "key": "meta.section.filter.filterEfficiency",
    "option": {
      "options": [
        "C1",
        "C2",
        "G3",
        "G4",
        "M5",
        "M6",
        "F7",
        "F8",
        "F9",
        "F7G",
        "F8G",
        "F9G",
        "Z1",
        "Z2",
        "GZ",
        "YG",
        "C3",
        "G1"
      ],
      "labels": [
        "C1",
        "C2",
        "G3",
        "G4",
        "M5",
        "M6",
        "F7",
        "F8",
        "F9",
        "F7(Large dust load)",
        "F8(Large dust load)",
        "F9(Large dust load)",
        "Z1",
        "Z2",
        "GZ",
        "YG",
        "C3",
        "G1"
      ],
      "clabels": [
        "C1",
        "C2",
        "G3",
        "G4",
        "M5",
        "M6",
        "F7",
        "F8",
        "F9",
        "F7(高容尘量)",
        "F8(高容尘量)",
        "F9(高容尘量)",
        "Z1",
        "Z2",
        "GZ",
        "YG",
        "C3",
        "G1"
      ],
      "relatedKeys": [
        "meta.section.filter.fitetF",
        "meta.section.filter.fitlerStandard",
        "meta.section.filter.filterOptions"
      ],
      "valueOptionMap": {
        "X#all#nonWoven": [
          1,
          2
        ],
        "X#all#AlMesh": [
          1,
          2
        ],
        "X#all#No": [
        ],
        "X#GB#nonWoven": [
          1
        ],
        "X#GB#AlMesh": [
          16
        ],
        "X#GB#No": [
        ],
        "X#EN#nonWoven": [
          2
        ],
        "X#EN#AlMesh": [
          2
        ],
        "X#EN#No": [
        ],
        "B#GB#nonWoven": [
          1,
          0,
          12,
          13,
          14,
          15
        ],
        "B#all#nonWoven": [
          4,
          5,
          6,
          7,
          8,
          9,
          10,
          11,
          12,
          13,
          14,
          15
        ],
        "B#GB#!~":[
          13,
          12,
          1,
          0,
          14,
          15
        ],
        "B#EN#!~":[
        	2,
        	3,
        	4,
        	5,
        	6,
        	7,
        	8,
        	9,
        	10,
        	11
        ],
        "B#all#!~":[
        	2,
        	3,
        	4,
        	5,
        	6,
        	7,
        	8,
        	9,
        	10,
        	11,
        	12,
        	13,
        	14,
        	15
        ],
        "B#all#No": [
        ],
        "B#GB#No": [
        ],
        "B#EN#nonWoven": [
          2,
          3,
          4,
          5,
          6,
          7,
          8,
          9,
          10,
          11
        ],
        "B#EN#No": [
        ],
        "P#all#nonWoven": [
          0,
          1,
          2,
          3
        ],
        "P#all#AlMesh": [
          16,
          17
        ],
        "P#all#No": [
        ],
        "P#GB#nonWoven": [
          0,
          1
        ],
        "P#GB#AlMesh": [
          16
        ],
        "P#GB#No": [
        ],
        "P#EN#nonWoven": [
          2,
          3
        ],
        "P#EN#AlMesh": [
          17
        ],
        "P#EN#No": [
        ]
      },
      "enableRelatedKeys": [
        "meta.section.filter.filterOptions"
      ],
      "enableValueMap": {
        "No": null
      }    },
    "defaultValue": ""
  },
  "meta.section.filter.pressureGuage": {
    "key": "meta.section.filter.pressureGuage",
    "option": {
      "options": [
        "pressureDifferenceSwitch",
        "Point Differential Pressure Guage",
        "w/o"
      ],
      "labels": [
        "Pressure Difference Switch",
        "Pointer Pressure Differential Gauge",
        "No Pressure Gauge"
      ],
      "clabels": [
        "压差开关",
        "指针式压差计",
        "无"
      ],
      "relatedKeys": [
      	"meta.section.filter.mediaLoading",
      	"meta.ahu.voltage"
      ],
      "valueOptionMap": {
      	"sideLoading#!~":[
      	  2
      	],
      	"!~#460V-3Ph-50Hz":[
      	  2
      	],
      	"!~#460V-3Ph-60Hz":[
      	  2
      	]
      },
      "enableRelatedKeys": [
        "meta.section.filter.fitetF"
      ],
      "enableValueMap": {
        "X": null
      }
    },
    "defaultValue": "pressureDifferenceSwitch"
  },
  "meta.section.filter.fitetF": {
    "key": "meta.section.filter.fitetF",
    "option": {
      "options": [
        "B",
        "P",
        "X"
      ],
      "labels": [
        "Bag Filter",
        "Panel Filter",
        "External Filter"
      ],
      "clabels": [
        "袋式",
        "板式",
        "外抽"
      ],
      "relatedKeys": [
        "assis.section.position",
        "assis.section.ahu.height"
      ],
      "valueOptionMap": {
        "1#\u003c28": [
          2,
          0,
          1
        ],
        "\u003e1#\u003c28": [
          0,
          1
        ],
        "!~#\u003e25": [
          0,
          1
        ]
      }
    },
    "defaultValue": ""
  },
  "meta.section.filter.filterOptions": {
    "key": "meta.section.filter.filterOptions",
    "option": {
      "options": [
        "nonWoven",
        "AlMesh",
        "No"
      ],
      "labels": [
        "Non-woven Filter",
        "Al Mesh Filter",
        "No Filter"
      ],
      "clabels": [
        "无纺布过滤器",
        "铝网过滤器",
        "无过滤器"
      ],
      "relatedKeys": [
        "assis.section.position",
        "meta.section.filter.fitetF"
      ],
      "valueOptionMap": {
        "!~#B": [
          0,
          2
        ],
        "\u003c2#X": [
          0,
          1,
          2
        ]
      }
    },
    "defaultValue": "nonWoven"
  },
  "meta.section.filter.fitlerStandard": {
    "key": "meta.section.filter.fitlerStandard",
    "option": {
      "options": [
        "GB",
        "EN",
        "all"
      ],
      "labels": [
        "GB/T14295",
        "EN779",
        "All Types"
      ],
      "clabels": [
        "GB/T14295",
        "EN779",
        "任意选项"
      ],
      "relatedKeys": [],
      "valueOptionMap": {}
    },
    "defaultValue": "GB"
  },
  "meta.section.filter.mediaLoading": {
    "key": "meta.section.filter.mediaLoading",
    "option": {
      "options": [
        "frontLoading",
        "sideLoading"
      ],
      "labels": [
        "Front Loading",
        "Side loading"
      ],
      "clabels": [
        "正面抽",
        "侧抽"
      ],
      "relatedKeys": [
        "assis.section.position"
      ],
      "valueOptionMap": {
        "1": [
          1
        ],
        "!1": [
          0
        ]
        }
      },
    "defaultValue": "frontLoading"
  },
  "meta.section.filter.rimThickness": {
    "key": "meta.section.filter.rimThickness",
    "option": {
      "options": [
        "1",
        "2"
      ],
      "labels": [
        "50",
        "25"
      ],
      "clabels": [
        "50",
        "25"
      ],
      "relatedKeys": [
      	"assis.section.position",
        "meta.section.filter.fitetF",
        "meta.section.filter.filterOptions",
        "meta.section.filter.mediaLoading",
        "meta.section.filter.filterEfficiency"
      ],
      "valueOptionMap": {
      	"!~#B#nonWoven#frontLoading#F7":[
      	  0,
      	  1
      	],
      	"\u003e1#B#nonWoven#!~#GZ":[
      	  0,
      	  1
      	],
        "!~#B#!~#sideLoading#!~": [
          0
        ],
        "!~#B#!~#frontLoading#!~": [
          1
        ],
        "!~#X#!~#sideLoading#!~": [
          0
        ],
        "!~#X#!~#frontLoading#!~": [
          0
        ],
        "!~#P#AlMesh#sideLoading#!~":[
          0
        ],
        "!~#P#AlMesh#!sideLoading#!~":[
          0
        ],
        "!~#P#!AlMesh#sideLoading#!~":[
          0
        ],
        "!~#P#!~#frontLoading#!~": [
          0
        ],
        "!~#P#!AlMesh#!~#!~": [
          0
        ],
        "!~#!~#!~#sideLoading#!~": [
          0
        ]
      },
      "enableRelatedKeys": [],
      "enableValueMap": {}
    },
    "defaultValue": "1"
  },
  "meta.section.filter.supportMeterial": {
    "key": "meta.section.filter.supportMeterial",
    "option": {
      "options": [
        "GS",
        "SS",
        "PS"
      ],
      "labels": [
        "G.l Steel",
        "Stainless steel",
        "Painted Cold Rolled Steel"
      ],
      "clabels": [
        "镀锌钢板",
        "不锈钢板",
        "冷轧烘漆"
      ],
      "relatedKeys": [
        "meta.section.filter.mediaLoading"
      ],
      "valueOptionMap": {
        "frontLoading": [
          0,
          1,
          2
        ],
        "sideLoading": [
          0,
          1
        ]
      },
      "enableRelatedKeys": [
        "meta.section.filter.fitetF"
      ],
      "enableValueMap": {
        "X": null
      }
    },
    "defaultValue": "GISteel"
  },
  "meta.section.filter.BaffleM": {
    "key": "meta.section.filter.BaffleM",
    "option": {
      "options": [
        "GS",
        "SS",
        "PS"
      ],
      "labels": [
        "G.l Steel",
        "Stainless steel",
        "Painted Cold Rolled Steel"
      ],
      "clabels": [
        "镀锌钢板",
        "不锈钢板",
        "冷轧烘漆"
      ],
      "relatedKeys": [
      	"meta.section.filter.mediaLoading"
      ],
      "valueOptionMap": {
      	"sideLoading":[
      		0,
      		1
      	],
      	"!sideLoading":[
      		0,
      		1,
      		2
      	]
      }
    },
    "defaultValue": "GS"
  },
 "meta.section.filter.sectionL": {
    "key": "meta.section.filter.sectionL",
    "option": {
      "options": [
        "0",
        "3",
        "4",
        "5",
        "6",
        "7",
        "8",
        "9"
      ],
      "labels": [
        "0",
        "3",
        "4",
        "5",
        "6",
        "7",
        "8",
        "9"
      ],
      "clabels": [
        "0",
        "3",
        "4",
        "5",
        "6",
        "7",
        "8",
        "9"
      ],
      "relatedKeys": [
        "assis.section.position",
        "meta.section.filter.fitetF",
        "meta.section.filter.filterOptions",
        "meta.section.filter.mediaLoading",
        "meta.section.filter.filterEfficiency"
      ],
      "valueOptionMap": {
      	"1#B#No#!~#!~": [
          4
        ],
        "1#X#!~#!~#!~": [
          0
        ],
        "1#B#!~#!~#!~": [
          7
        ],
        "1#P#!~#!~#!~": [
          3
        ],
        "\u003e1#P#nonWoven#frontLoading#!~": [
          0
        ],
        "\u003e1#P#No#sideLoading#!~": [
          2
        ],
        "\u003e1#P#!~#sideLoading#!~": [
          2
        ],
        "\u003e1#P#!nonWoven#sideLoading#G3": [
          2
        ],
        "\u003e1#P#!nonWoven#sideLoading#G4": [
          2
        ],
        "\u003e1#P#!No#sideLoading#G4": [
          0
        ],
        "\u003e1#P#No#!~#!~": [
          0
        ],
        "\u003e1#B#No#frontLoading#!~": [
          2
        ],
        "\u003e1#B#No#sideLoading#!~": [
          4
        ],
        "\u003e1#B#nonWoven#frontLoading#G3": [
          2,
          1,
          4
        ],
        "\u003e1#B#nonWoven#frontLoading#G4": [
          2,
          1,
          4
        ],
        "\u003e1#B#nonWoven#frontLoading#M5": [
          2,
          1,
          4
        ],
        "\u003e1#B#nonWoven#frontLoading#M6": [
          2,
          1,
          4
        ],
        "\u003e1#B#!~#frontLoading#F8": [
          4
        ],
        "\u003e1#B#!~#frontLoading#F9": [
          4
        ],
        "\u003e1#B#!~#frontLoading#F7G": [
          4
        ],
        "\u003e1#B#!~#frontLoading#F8G": [
          4
        ],
        "\u003e1#B#!~#frontLoading#F9G": [
          4
        ],
        "\u003e1#B#nonWoven#sideLoading#F7": [
          6
        ],
        "\u003e1#B#nonWoven#sideLoading#F8": [
          6
        ],
        "\u003e1#B#nonWoven#sideLoading#F9": [
          6
        ],
        "\u003e1#B#nonWoven#sideLoading#F7G": [
          6
        ],
        "\u003e1#B#nonWoven#sideLoading#F8G": [
          6
        ],
        "\u003e1#B#nonWoven#sideLoading#F9G": [
          6
        ],
        "\u003e1#B#!~#frontLoading#YG": [
          4
        ],
        "\u003e1#B#!~#frontLoading#C1": [
          4,
          1
        ],
        "\u003e1#B#!~#frontLoading#C2": [
          4,
          1
        ],
         "\u003e1#B#nonWoven#sideLoading#G3": [
          6
        ],
        "\u003e1#B#nonWoven#sideLoading#G4": [
          6
        ],
        "\u003e1#B#nonWoven#sideLoading#M5": [
          6
        ],
        "\u003e1#B#nonWoven#sideLoading#M7": [
          6
        ],
        "!~#!~#!~#!~#F7": [
          4
        ],
        "\u003e1#B#!~#frontLoading#Z1": [
          2,
          1,
          4
        ],
        "\u003e1#B#nonWoven#frontLoading#Z2": [
          2,
          1,
          4
        ],
        "\u003e1#B#!~#frontLoading#Z2": [
          2,
          1,
          4
        ],
        "\u003e1#B#!~#frontLoading#GZ": [
          2,
          1,
          4
        ],
        "\u003e1#B#nonWoven#sideLoading#GZ": [
          6
        ],
        "\u003e1#B#nonWoven#sideLoading#Z2": [
          6
        ],
        "\u003e1#B#nonWoven#sideLoading#YG": [
          6
        ],
        "\u003e1#B#!~#sideLoading#!~": [
          6
        ],
        "\u003e1#B#No#!~#!~": [
          0
        ]
      }
    },
    "defaultValue": "0",
    "defaultValueMap": {
     	"\u003e1#B#nonWoven#frontLoading#Z2":"4",
     	"\u003e1#B#nonWoven#frontLoading#G3":"4",
     	"\u003e1#B#nonWoven#frontLoading#G4":"4",
     	"\u003e1#B#nonWoven#frontLoading#M5":"4",
     	"\u003e1#B#nonWoven#frontLoading#M6":"4",
     	"\u003e1#B#!~#frontLoading#Z1":"4",
     	"\u003e1#B#!~#frontLoading#Z2":"4",
     	"\u003e1#B#!~#frontLoading#GZ":"4"
    }
  },  
  "meta.section.filter.nsPressureGuageModel": {
    "key": "meta.section.filter.nsPressureGuageModel",
    "option": {
      "options": [
        "a",
        "b"
      ],
      "labels": [
        "Dwyer pointer type pressure meter",
        "Digital differential pressure display, analog output: 0-10V/4-20mA"
      ],
      "clabels": [
        "Dwyer指针式压差计",
        "数字压差显示，模拟输出：0-10V/4-20mA(三线)"
      ],
      "relatedKeys": [],
      "valueOptionMap": {}
    },
    "defaultValue": "a"
  }
}