unitType,h,l,m,n,h1,w
39CQ0608,490,600,66,5,65,196
39CQ0609,490,700,66,5,65,196
39CQ0711,590,900,80,5,75,196
39CQ0811,690,900,66,8,65,196
39CQ0912,790,1000,78,8,65,196
39CQ0913,790,1100,78,8,65,196
39CQ0914,790,1200,78,8,65,196
39CQ1015,890,1300,66,11,65,196
39CQ1117,990,1500,66,11,115,196
39CQ1317,1190,1500,66,14,115,196
39CQ1418,1290,1600,78,14,65,196
39CQ1420,1290,1800,78,14,65,196
39CQ1621,1490,1900,80,14,155,196
39CQ1822,1690,2000,80,17,145,196
39CQ1825,1690,2300,80,17,145,196
39CQ2025,1890,2300,80,20,125,196
39CQ2125,1990,2300,78,23,105,196
39CQ2226,2090,2400,80,23,105,196
39CQ2328,2190,2600,80,23,155,196
39CQ2333,2190,3100,80,23,155,196
39CQ2532,2292,3000,80,26,0,196
39CQ2832,2612,3000,82,29,0,196
39CQ3132,2929,3000,85,32,0,196
39CQ3438,3260,3600,87,35,0,196
39CQ3841,3578,3900,82,41,0,196
39CQ4444,4169,4200,84,47,0,196
39CQ4750,4500,4800,85,53,0,196
39CQ2330,2190,2800,80,23,155,196
39G0608,490,600,66,5,65,196
39G0609,490,700,66,5,65,196
39G0711,590,900,80,5,75,196
39G0811,690,900,66,8,65,196
39G0912,790,1000,78,8,65,196
39G0913,790,1100,78,8,65,196
39G0914,790,1200,78,8,65,196
39G1015,890,1300,66,11,65,196
39G1117,990,1500,66,11,115,196
39G1317,1190,1500,66,14,115,196
39G1418,1290,1600,78,14,65,196
39G1420,1290,1800,78,14,65,196
39G1621,1490,1900,80,14,155,196
39G1822,1690,2000,80,17,145,196
39G1825,1690,2300,80,17,145,196
39G2025,1890,2300,80,20,125,196
39G2125,1990,2300,78,23,105,196
39G2226,2090,2400,80,23,105,196
39G2328,2190,2600,80,23,155,196
39G2333,2190,3100,80,23,155,196
39G2532,2292,3000,80,26,0,196
39G2832,2612,3000,82,29,0,196
39G3132,2929,3000,85,32,0,196
39G3438,3260,3600,87,35,0,196
39G3841,3578,3900,82,41,0,196
39G4444,4169,4200,84,47,0,196
39G4750,4500,4800,85,53,0,196
39G2330,2190,2800,80,23,155,196
39XT0608,490,600,66,5,65,196
39XT0609,490,700,66,5,65,196
39XT0711,590,900,80,5,75,196
39XT0811,690,900,66,8,65,196
39XT0912,790,1000,78,8,65,196
39XT0913,790,1100,78,8,65,196
39XT0914,790,1200,78,8,65,196
39XT1015,890,1300,66,11,65,196
39XT1117,990,1500,66,11,115,196
39XT1317,1190,1500,66,14,115,196
39XT1418,1290,1600,78,14,65,196
39XT1420,1290,1800,78,14,65,196
39XT1621,1490,1900,80,14,155,196
39XT1822,1690,2000,80,17,145,196
39XT1825,1690,2300,80,17,145,196
39XT2025,1890,2300,80,20,125,196
39XT2125,1990,2300,78,23,105,196
39XT2226,2090,2400,80,23,105,196
39XT2328,2190,2600,80,23,155,196
39XT2333,2190,3100,80,23,155,196
39XT2532,2292,3000,80,26,0,196
39XT2832,2612,3000,82,29,0,196
39XT3132,2929,3000,85,32,0,196
39XT3438,3260,3600,87,35,0,196
39XT3841,3578,3900,82,41,0,196
39XT4444,4169,4200,84,47,0,196
39XT4750,4500,4800,85,53,0,196
39XT2330,2190,2800,80,23,155,196
