fanType,filterFormat,frontDrawing,frontDimension,topDrawing,topDimension
39CQ0608,3,WCGTJ_T+WCG11+WCGTJ_B,114+400+114,WCGTJ_T+WCG11+WCGTJ_B,114+600+114
39CQ0609,3,WCGTJ_T+WCG11+WCGTJ_B,114+400+114,WCGTJ_T+WCG11+WCG11+WCGTJ_B,64+400+400+64
39CQ1015,3,WCGTJ_T+WCG11+WCG11+WCGTJ_B,114+400+400+114,WCGTJ_T+WCG11+WCG11+WCG11+WCGTJ_B,114+399+399+502+114
39CQ1117,3,WCGTJ_T+WCG11+WCG11+WCGTJ_B,114+400+500+114,WCGTJ_T+WCG11+WCG11+WCG11+WCGTJ_B,114+500+500+500+114
39CQ1822,3,WCGTJ_T+WCG11+WCG11+WCG11+WCGTJ_B,114+400+600+600+114,WCGTJ_T+WCG11+WCG11+WCG11+WCG11+WCGTJ_B,114+500+500+500+500+114
39CQ1825,3,WCGTJ_T+WCG11+WCG11+WCG11+WCGTJ_B,114+400+600+600+114,WCGTJ_T+WCG11+WCG11+WCG11+WCG11+WCG11+WCGTJ_B,125+496+496+496+395+395+125
39CQ2025,3,WCGTJ_T+WCG11+WCG11+WCG11+WCGTJ_B,114+400+700+700+114,WCGTJ_T+WCG11+WCG11+WCG11+WCG11+WCG11+WCGTJ_B,125+496+496+496+395+395+125
39CQ0711,3,WCGTJ_T+WCG11+WCGTJ_B,114+500+114,WCGTJ_T+WCG11+WCG11+WCGTJ_B,114+500+400+114
39CQ2328,3,WCGTJ_T+WCG11+WCG11+WCG11+WCG11+WCGTJ_B,114+500+500+500+600+114,WCGTJ_T+WCG11+WCG11+WCG11+WCG11+WCG11+WCG11+WCGTJ_B,130+496+496+394+394+394+394+130
39CQ2330,3,WCGTJ_T+WCG11+WCG11+WCG11+WCG11+WCGTJ_B,114+500+500+500+600+114,WCGTJ_T+WCG11+WCG11+WCG11+WCG11+WCG11+WCG11+WCG11+WCGTJ_B,135+495+495+496+393+393+393+393+135
39CQ2333,3,WCGTJ_T+WCG11+WCG11+WCG11+WCG11+WCGTJ_B,114+500+500+500+600+114,WCGTJ_T+WCG11+WCG11+WCG11+WCG11+WCG11+WCG11+WCG11+WCGTJ_B,135+495+495+496+393+393+393+393+135
39CQ1317,3,WCGTJ_T+WCG11+WCG11+WCGTJ_B,114+500+600+114,WCGTJ_T+WCG11+WCG11+WCG11+WCGTJ_B,114+500+500+500+114
39CQ2125,3,WCGTJ_T+WCG11+WCG11+WCG11+WCGTJ_B,114+500+700+700+114,WCGTJ_T+WCG11+WCG11+WCG11+WCG11+WCG11+WCGTJ_B,125+496+496+496+395+395+125
39CQ0811,3,WCGTJ_T+WCG11+WCGTJ_B,114+600+114,WCGTJ_T+WCG11+WCG11+WCGTJ_B,114+500+400+114
39CQ1418,3,WCGTJ_T+WCG11+WCG11+WCGTJ_B,114+600+600+114,WCGTJ_T+WCG11+WCG11+WCG11+WCGTJ_B,114+500+500+600+114
39CQ1420,3,WCGTJ_T+WCG11+WCG11+WCGTJ_B,114+600+600+114,WCGTJ_T+WCG11+WCG11+WCG11+WCGTJ_B,114+600+600+600+114
39CQ2226,3,WCGTJ_T+WCG11+WCG11+WCG11+WCGTJ_B,114+600+700+700+114,WCGTJ_T+WCG11+WCG11+WCG11+WCG11+WCG11+WCGTJ_B,125+496+496+496+496+394+125
39CQ0912,3,WCGTJ_T+WCG11+WCGTJ_B,114+700+114,WCGTJ_T+WCG11+WCG11+WCGTJ_B,114+500+500+114
39CQ0913,3,WCGTJ_T+WCG11+WCGTJ_B,114+700+114,WCGTJ_T+WCG11+WCG11+WCG11+WCGTJ_B,70+396+396+396+70
39CQ0914,3,WCGTJ_T+WCG11+WCGTJ_B,114+700+114,WCGTJ_T+WCG11+WCG11+WCG11+WCGTJ_B,114+400+400+400+114
39CQ1621,3,WCGTJ_T+WCG11+WCG11+WCGTJ_B,114+700+700+114,WCGTJ_T+WCG11+WCG11+WCG11+WCG11+WCGTJ_B,120+497+497+497+397+120
39CQ1015,1,BFLT_F+BFLT_F,305+610,BFLT_6D_T+BFLT_6D_T,610+610
39CQ1015,2,PFLT_F+PFLT_F,305+610,PFLT_F+PFLT_F,610+610
39CQ1015,5,VFLT_F+VFLT_F,305+610,VFLT_6D_T+VFLT_6D_T,610+610
39CQ1015,6,XFLT_F+XFLT_F,305+610,XFLT_T+XFLT_T,610+610
39CQ1015,7,JDFLT_F+JDFLT_F,305+610,JDFLT_T+JDFLT_T,610+610
39CQ1015,H,BFLT_F_H+BFLT_F_H,305+610,BFLT_8D_H+BFLT_8D_H,610+610
39CQ0912,1,BFLT_F+BFLT_F,406+406,BFLT_6D_T+BFLT_5D_T,610+508
39CQ0913,1,BFLT_F+BFLT_F,406+406,BFLT_6D_T+BFLT_5D_T,610+508
39CQ0914,1,BFLT_F+BFLT_F,406+406,BFLT_6D_T+BFLT_6D_T,610+610
39CQ0912,2,PFLT_F+PFLT_F,406+406,PFLT_F+PFLT_F,610+508
39CQ0913,2,PFLT_F+PFLT_F,406+406,PFLT_F+PFLT_F,610+508
39CQ0914,2,PFLT_F+PFLT_F,406+406,PFLT_F+PFLT_F,610+610
39CQ0912,5,VFLT_F+VFLT_F,406+406,VFLT_6D_T+VFLT_5D_T,610+508
39CQ0913,5,VFLT_F+VFLT_F,406+406,VFLT_6D_T+VFLT_5D_T,610+508
39CQ0914,5,VFLT_F+VFLT_F,406+406,VFLT_6D_T+VFLT_6D_T,610+610
39CQ0912,6,XFLT_F+XFLT_F,406+406,XFLT_T+XFLT_T,610+508
39CQ0913,6,XFLT_F+XFLT_F,406+406,XFLT_T+XFLT_T,610+508
39CQ0914,6,XFLT_F+XFLT_F,406+406,XFLT_T+XFLT_T,610+610
39CQ0912,7,JDFLT_F+JDFLT_F,406+406,JDFLT_T+JDFLT_T,610+508
39CQ0913,7,JDFLT_F+JDFLT_F,406+406,JDFLT_T+JDFLT_T,610+508
39CQ0914,7,JDFLT_F+JDFLT_F,406+406,JDFLT_T+JDFLT_T,610+610
39CQ0912,H,BFLT_F_H+BFLT_F_H,406+406,BFLT_8D_H+BFLT_7D_H,610+508
39CQ0913,H,BFLT_F_H+BFLT_F_H,406+406,BFLT_8D_H+BFLT_7D_H,610+508
39CQ0914,H,BFLT_F_H+BFLT_F_H,406+406,BFLT_8D_H+BFLT_8D_H,610+610
39CQ1117,1,BFLT_F+BFLT_F,406+610,BFLT_6D_T+BFLT_6D_T+BFLT_4D_T,610+610+406
39CQ1117,2,PFLT_F+PFLT_F,406+610,PFLT_F+PFLT_F+PFLT_F,610+610+406
39CQ1117,5,VFLT_F+VFLT_F,406+610,VFLT_6D_T+VFLT_6D_T+VFLT_4D_T,610+610+406
39CQ1117,6,XFLT_F+XFLT_F,406+610,XFLT_T+XFLT_T+XFLT_T,610+610+406
39CQ1117,7,JDFLT_F+JDFLT_F,406+610,JDFLT_T+JDFLT_T+JDFLT_T,610+610+406
39CQ1117,H,BFLT_F_H+BFLT_F_H,406+610,BFLT_8D_H+BFLT_8D_H+BFLT_6D_H,610+610+406
39CQ0608,1,BFLT_F,508,BFLT_3D_T+BFLT_3D_T,305+305
39CQ0609,1,BFLT_F,508,BFLT_4D_T+BFLT_4D_T,406+406
39CQ0608,2,PFLT_F,508,PFLT_F+PFLT_F,305+305
39CQ0609,2,PFLT_F,508,PFLT_F+PFLT_F,406+406
39CQ0608,5,VFLT_F,508,VFLT_3D_T+VFLT_3D_T,305+305
39CQ0609,5,VFLT_F,508,VFLT_4D_T+VFLT_4D_T,406+406
39CQ0608,6,XFLT_F,508,XFLT_T+XFLT_T,305+305
39CQ0609,6,XFLT_F,508,XFLT_T+XFLT_T,406+406
39CQ0608,7,JDFLT_F,508,JDFLT_T+JDFLT_T,305+305
39CQ0609,7,JDFLT_F,508,JDFLT_T+JDFLT_T,406+406
39CQ0608,H,BFLT_F_H,508,BFLT_4D_H+BFLT_4D_H,305+305
39CQ0609,H,BFLT_F_H,508,BFLT_6D_H+BFLT_6D_H,406+406
39CQ0711,1,BFLT_F,610,BFLT_3D_T+BFLT_3D_T+BFLT_3D_T,305+305+305
39CQ0811,1,BFLT_F,610,BFLT_3D_T+BFLT_3D_T+BFLT_4D_T,305+305+406
39CQ0711,2,PFLT_F,610,PFLT_F+PFLT_F+PFLT_F,305+305+305
39CQ0811,2,PFLT_F,610,PFLT_F+PFLT_F+PFLT_F,305+305+406
39CQ0711,5,VFLT_F,610,VFLT_3D_T+VFLT_3D_T+VFLT_3D_T,305+305+305
39CQ0811,5,VFLT_F,610,VFLT_3D_T+VFLT_3D_T+VFLT_4D_T,305+305+406
39CQ0711,6,XFLT_F,610,XFLT_T+XFLT_T+XFLT_T,305+305+305
39CQ0811,6,XFLT_F,610,XFLT_T+XFLT_T+XFLT_T,305+305+406
39CQ0711,7,JDFLT_F,610,JDFLT_T+JDFLT_T+JDFLT_T,305+305+305
39CQ0811,7,JDFLT_F,610,JDFLT_T+JDFLT_T+JDFLT_T,305+305+406
39CQ0711,H,BFLT_F_H,610,BFLT_4D_H+BFLT_4D_H+BFLT_4D_H,305+305+305
39CQ0811,H,BFLT_F_H,610,BFLT_4D_H+BFLT_4D_H+BFLT_6D_H,305+305+406
39CQ1317,1,BFLT_F+BFLT_F,610+610,BFLT_6D_T+BFLT_6D_T+BFLT_3D_T,610+610+305
39CQ1418,1,BFLT_F+BFLT_F,610+610,BFLT_6D_T+BFLT_6D_T+BFLT_4D_T,610+610+406
39CQ1420,1,BFLT_F+BFLT_F,610+610,BFLT_6D_T+BFLT_6D_T+BFLT_6D_T,610+610+610
39CQ1317,2,PFLT_F+PFLT_F,610+610,PFLT_F+PFLT_F+PFLT_F,610+610+305
39CQ1418,2,PFLT_F+PFLT_F,610+610,PFLT_F+PFLT_F+PFLT_F,610+610+406
39CQ1420,2,PFLT_F+PFLT_F,610+610,PFLT_F+PFLT_F+PFLT_F,610+610+610
39CQ1317,5,VFLT_F+VFLT_F,610+610,VFLT_6D_T+VFLT_6D_T+VFLT_3D_T,610+610+305
39CQ1418,5,VFLT_F+VFLT_F,610+610,VFLT_6D_T+VFLT_6D_T+VFLT_4D_T,610+610+406
39CQ1420,5,VFLT_F+VFLT_F,610+610,VFLT_6D_T+VFLT_6D_T+VFLT_6D_T,610+610+610
39CQ1317,6,XFLT_F+XFLT_F,610+610,XFLT_T+XFLT_T+XFLT_T,610+610+305
39CQ1418,6,XFLT_F+XFLT_F,610+610,XFLT_T+XFLT_T+XFLT_T,610+610+406
39CQ1420,6,XFLT_F+XFLT_F,610+610,XFLT_T+XFLT_T+XFLT_T,610+610+610
39CQ1317,7,JDFLT_F+JDFLT_F,610+610,JDFLT_T+JDFLT_T+JDFLT_T,610+610+305
39CQ1418,7,JDFLT_F+JDFLT_F,610+610,JDFLT_T+JDFLT_T+JDFLT_T,610+610+406
39CQ1420,7,JDFLT_F+JDFLT_F,610+610,JDFLT_T+JDFLT_T+JDFLT_T,610+610+610
39CQ1317,H,BFLT_F_H+BFLT_F_H,610+610,BFLT_8D_H+BFLT_8D_H+BFLT_4D_H,610+610+305
39CQ1418,H,BFLT_F_H+BFLT_F_H,610+610,BFLT_8D_H+BFLT_8D_H+BFLT_6D_H,610+610+406
39CQ1420,H,BFLT_F_H+BFLT_F_H,610+610,BFLT_8D_H+BFLT_8D_H+BFLT_8D_H,610+610+610
39CQ1621,1,BFLT_F+BFLT_F+BFLT_F,610+610+305,BFLT_6D_T+BFLT_6D_T+BFLT_6D_T,610+610+610
39CQ1825,1,BFLT_F+BFLT_F+BFLT_F,610+610+305,BFLT_6D_T+BFLT_6D_T+BFLT_6D_T+BFLT_6D_T,610+610+610+610
39CQ1621,2,PFLT_F+PFLT_F+PFLT_F,610+610+305,PFLT_F+PFLT_F+PFLT_F,610+610+610
39CQ1825,2,PFLT_F+PFLT_F+PFLT_F,610+610+305,PFLT_F+PFLT_F+PFLT_F+PFLT_F,610+610+610+610
39CQ1621,5,VFLT_F+VFLT_F+VFLT_F,610+610+305,VFLT_6D_T+VFLT_6D_T+VFLT_6D_T,610+610+610
39CQ1825,5,VFLT_F+VFLT_F+VFLT_F,610+610+305,VFLT_6D_T+VFLT_6D_T+VFLT_6D_T+VFLT_6D_T,610+610+610+610
39CQ1621,6,XFLT_F+XFLT_F+XFLT_F,610+610+305,XFLT_T+XFLT_T+XFLT_T,610+610+610
39CQ1825,6,XFLT_F+XFLT_F+XFLT_F,610+610+305,XFLT_T+XFLT_T+XFLT_T+XFLT_T,610+610+610+610
39CQ1621,7,JDFLT_F+JDFLT_F+JDFLT_F,610+610+305,JDFLT_T+JDFLT_T+JDFLT_T,610+610+610
39CQ1825,7,JDFLT_F+JDFLT_F+JDFLT_F,610+610+305,JDFLT_T+JDFLT_T+JDFLT_T+JDFLT_T,610+610+610+610
39CQ1621,H,BFLT_F_H+BFLT_F_H+BFLT_F_H,610+610+305,BFLT_8D_H+BFLT_8D_H+BFLT_8D_H,610+610+610
39CQ1825,H,BFLT_F_H+BFLT_F_H+BFLT_F_H,610+610+305,BFLT_8D_H+BFLT_8D_H+BFLT_8D_H+BFLT_8D_H,610+610+610+610
39CQ1822,1,BFLT_F+BFLT_F+BFLT_F,610+610+406,BFLT_6D_T+BFLT_6D_T+BFLT_6D_T+BFLT_3D_T,610+610+610+305
39CQ1822,2,PFLT_F+PFLT_F+PFLT_F,610+610+406,PFLT_F+PFLT_F+PFLT_F+PFLT_F,610+610+610+305
39CQ1822,5,VFLT_F+VFLT_F+VFLT_F,610+610+406,VFLT_6D_T+VFLT_6D_T+VFLT_6D_T+VFLT_3D_T,610+610+610+305
39CQ1822,6,XFLT_F+XFLT_F+XFLT_F,610+610+406,XFLT_T+XFLT_T+XFLT_T+XFLT_T,610+610+610+305
39CQ1822,7,JDFLT_F+JDFLT_F+JDFLT_F,610+610+406,JDFLT_T+JDFLT_T+JDFLT_T+JDFLT_T,610+610+610+305
39CQ1822,H,BFLT_F_H+BFLT_F_H+BFLT_F_H,610+610+406,BFLT_8D_H+BFLT_8D_H+BFLT_8D_H+BFLT_4D_H,610+610+610+305
39CQ2025,1,BFLT_F+BFLT_F+BFLT_F,610+610+610,BFLT_6D_T+BFLT_6D_T+BFLT_6D_T+BFLT_6D_T,610+610+610+610
39CQ2125,1,BFLT_F+BFLT_F+BFLT_F,610+610+610,BFLT_6D_T+BFLT_6D_T+BFLT_6D_T+BFLT_6D_T,610+610+610+610
39CQ2025,2,PFLT_F+PFLT_F+PFLT_F,610+610+610,PFLT_F+PFLT_F+PFLT_F+PFLT_F,610+610+610+610
39CQ2125,2,PFLT_F+PFLT_F+PFLT_F,610+610+610,PFLT_F+PFLT_F+PFLT_F+PFLT_F,610+610+610+610
39CQ2025,5,VFLT_F+VFLT_F+VFLT_F,610+610+610,VFLT_6D_T+VFLT_6D_T+VFLT_6D_T+VFLT_6D_T,610+610+610+610
39CQ2125,5,VFLT_F+VFLT_F+VFLT_F,610+610+610,VFLT_6D_T+VFLT_6D_T+VFLT_6D_T+VFLT_6D_T,610+610+610+610
39CQ2025,6,XFLT_F+XFLT_F+XFLT_F,610+610+610,XFLT_T+XFLT_T+XFLT_T+XFLT_T,610+610+610+610
39CQ2125,6,XFLT_F+XFLT_F+XFLT_F,610+610+610,XFLT_T+XFLT_T+XFLT_T+XFLT_T,610+610+610+610
39CQ2025,7,JDFLT_F+JDFLT_F+JDFLT_F,610+610+610,JDFLT_T+JDFLT_T+JDFLT_T+JDFLT_T,610+610+610+610
39CQ2125,7,JDFLT_F+JDFLT_F+JDFLT_F,610+610+610,JDFLT_T+JDFLT_T+JDFLT_T+JDFLT_T,610+610+610+610
39CQ2025,H,BFLT_F_H+BFLT_F_H+BFLT_F_H,610+610+610,BFLT_8D_H+BFLT_8D_H+BFLT_8D_H+BFLT_8D_H,610+610+610+610
39CQ2125,H,BFLT_F_H+BFLT_F_H+BFLT_F_H,610+610+610,BFLT_8D_H+BFLT_8D_H+BFLT_8D_H+BFLT_8D_H,610+610+610+610
39CQ2226,1,BFLT_F+BFLT_F+BFLT_F+BFLT_F,610+610+610+305,BFLT_6D_T+BFLT_6D_T+BFLT_6D_T+BFLT_6D_T,610+610+610+610
39CQ2328,1,BFLT_F+BFLT_F+BFLT_F+BFLT_F,610+610+610+305,BFLT_6D_T+BFLT_6D_T+BFLT_6D_T+BFLT_6D_T+BFLT_3D_T,610+610+610+610+305
39CQ2226,2,PFLT_F+PFLT_F+PFLT_F+PFLT_F,610+610+610+305,PFLT_F+PFLT_F+PFLT_F+PFLT_F,610+610+610+610
39CQ2328,2,PFLT_F+PFLT_F+PFLT_F+PFLT_F,610+610+610+305,PFLT_F+PFLT_F+PFLT_F+PFLT_F+PFLT_F,610+610+610+610+305
39CQ2226,5,VFLT_F+VFLT_F+VFLT_F+VFLT_F,610+610+610+305,VFLT_6D_T+VFLT_6D_T+VFLT_6D_T+VFLT_6D_T,610+610+610+610
39CQ2328,5,VFLT_F+VFLT_F+VFLT_F+VFLT_F,610+610+610+305,VFLT_6D_T+VFLT_6D_T+VFLT_6D_T+VFLT_6D_T+VFLT_3D_T,610+610+610+610+305
39CQ2226,6,XFLT_F+XFLT_F+XFLT_F+XFLT_F,610+610+610+305,XFLT_T+XFLT_T+XFLT_T+XFLT_T,610+610+610+610
39CQ2328,6,XFLT_F+XFLT_F+XFLT_F+XFLT_F,610+610+610+305,XFLT_T+XFLT_T+XFLT_T+XFLT_T+XFLT_T,610+610+610+610+305
39CQ2226,7,JDFLT_F+JDFLT_F+JDFLT_F+JDFLT_F,610+610+610+305,JDFLT_T+JDFLT_T+JDFLT_T+JDFLT_T,610+610+610+610
39CQ2328,7,JDFLT_F+JDFLT_F+JDFLT_F+JDFLT_F,610+610+610+305,JDFLT_T+JDFLT_T+JDFLT_T+JDFLT_T+JDFLT_T,610+610+610+610+305
39CQ2226,H,BFLT_F_H+BFLT_F_H+BFLT_F_H+BFLT_F_H,610+610+610+305,BFLT_8D_H+BFLT_8D_H+BFLT_8D_H+BFLT_8D_H,610+610+610+610
39CQ2328,H,BFLT_F_H+BFLT_F_H+BFLT_F_H+BFLT_F_H,610+610+610+305,BFLT_8D_H+BFLT_8D_H+BFLT_8D_H+BFLT_8D_H+BFLT_4D_H,610+610+610+610+305
39CQ2330,1,BFLT_F+BFLT_F+BFLT_F+BFLT_F,610+610+610+406,BFLT_6D_T+BFLT_6D_T+BFLT_6D_T+BFLT_6D_T+BFLT_6D_T,610+610+610+610+610
39CQ2333,1,BFLT_F+BFLT_F+BFLT_F+BFLT_F,610+610+610+406,BFLT_6D_T+BFLT_6D_T+BFLT_6D_T+BFLT_6D_T+BFLT_6D_T,610+610+610+610+610
39CQ2330,2,PFLT_F+PFLT_F+PFLT_F+PFLT_F,610+610+610+406,PFLT_F+PFLT_F+PFLT_F+PFLT_F+PFLT_F,610+610+610+610+610
39CQ2333,2,PFLT_F+PFLT_F+PFLT_F+PFLT_F,610+610+610+406,PFLT_F+PFLT_F+PFLT_F+PFLT_F+PFLT_F,610+610+610+610+610
39CQ2330,5,VFLT_F+VFLT_F+VFLT_F+VFLT_F,610+610+610+406,VFLT_6D_T+VFLT_6D_T+VFLT_6D_T+VFLT_6D_T+VFLT_6D_T,610+610+610+610+610
39CQ2333,5,VFLT_F+VFLT_F+VFLT_F+VFLT_F,610+610+610+406,VFLT_6D_T+VFLT_6D_T+VFLT_6D_T+VFLT_6D_T+VFLT_6D_T,610+610+610+610+610
39CQ2330,6,XFLT_F+XFLT_F+XFLT_F+XFLT_F,610+610+610+406,XFLT_T+XFLT_T+XFLT_T+XFLT_T+XFLT_T,610+610+610+610+610
39CQ2333,6,XFLT_F+XFLT_F+XFLT_F+XFLT_F,610+610+610+406,XFLT_T+XFLT_T+XFLT_T+XFLT_T+XFLT_T,610+610+610+610+610
39CQ2330,7,JDFLT_F+JDFLT_F+JDFLT_F+JDFLT_F,610+610+610+406,JDFLT_T+JDFLT_T+JDFLT_T+JDFLT_T+JDFLT_T,610+610+610+610+610
39CQ2333,7,JDFLT_F+JDFLT_F+JDFLT_F+JDFLT_F,610+610+610+406,JDFLT_T+JDFLT_T+JDFLT_T+JDFLT_T+JDFLT_T,610+610+610+610+610
39CQ2330,H,BFLT_F_H+BFLT_F_H+BFLT_F_H+BFLT_F_H,610+610+610+406,BFLT_8D_H+BFLT_8D_H+BFLT_8D_H+BFLT_8D_H+BFLT_8D_H,610+610+610+610+610
39CQ2333,H,BFLT_F_H+BFLT_F_H+BFLT_F_H+BFLT_F_H,610+610+610+406,BFLT_8D_H+BFLT_8D_H+BFLT_8D_H+BFLT_8D_H+BFLT_8D_H,610+610+610+610+610
39CQ2532,1,BFLT_F+BFLT_F+BFLT_F+BFLT_F,610+610+610+610,BFLT_6D_T+BFLT_6D_T+BFLT_6D_T+BFLT_6D_T+BFLT_6D_T,610+610+610+610+610
39CQ2532,2,PFLT_F+PFLT_F+PFLT_F+PFLT_F,610+610+610+610,PFLT_F+PFLT_F+PFLT_F+PFLT_F+PFLT_F,610+610+610+610+610
39CQ2532,5,VFLT_F+VFLT_F+VFLT_F+VFLT_F,610+610+610+610,VFLT_6D_T+VFLT_6D_T+VFLT_6D_T+VFLT_6D_T+VFLT_6D_T,610+610+610+610+610
39CQ2532,H,BFLT_F_H+BFLT_F_H+BFLT_F_H+BFLT_F_H,610+610+610+610,BFLT_8D_H+BFLT_8D_H+BFLT_8D_H+BFLT_8D_H+BFLT_8D_H,610+610+610+610+610
39CQ2832,1,BFLT_F+BFLT_F+BFLT_F+BFLT_F+BFLT_F,610+610+610+610+305,BFLT_6D_T+BFLT_6D_T+BFLT_6D_T+BFLT_6D_T+BFLT_6D_T,610+610+610+610+610
39CQ2832,2,PFLT_F+PFLT_F+PFLT_F+PFLT_F+PFLT_F,610+610+610+610+305,PFLT_F+PFLT_F+PFLT_F+PFLT_F+PFLT_F,610+610+610+610+610
39CQ2832,5,VFLT_F+VFLT_F+VFLT_F+VFLT_F+VFLT_F,610+610+610+610+305,VFLT_6D_T+VFLT_6D_T+VFLT_6D_T+VFLT_6D_T+VFLT_6D_T,610+610+610+610+610
39CQ2832,H,BFLT_F_H+BFLT_F_H+BFLT_F_H+BFLT_F_H+BFLT_F_H,610+610+610+610+305,BFLT_8D_H+BFLT_8D_H+BFLT_8D_H+BFLT_8D_H+BFLT_8D_H,610+610+610+610+610
39CQ3132,1,BFLT_F+BFLT_F+BFLT_F+BFLT_F+BFLT_F,610+610+610+610+610,BFLT_6D_T+BFLT_6D_T+BFLT_6D_T+BFLT_6D_T+BFLT_6D_T,610+610+610+610+610
39CQ3132,2,PFLT_F+PFLT_F+PFLT_F+PFLT_F+PFLT_F,610+610+610+610+610,PFLT_F+PFLT_F+PFLT_F+PFLT_F+PFLT_F,610+610+610+610+610
39CQ3132,5,VFLT_F+VFLT_F+VFLT_F+VFLT_F+VFLT_F,610+610+610+610+610,VFLT_6D_T+VFLT_6D_T+VFLT_6D_T+VFLT_6D_T+VFLT_6D_T,610+610+610+610+610
39CQ3132,H,BFLT_F_H+BFLT_F_H+BFLT_F_H+BFLT_F_H+BFLT_F_H,610+610+610+610+610,BFLT_8D_H+BFLT_8D_H+BFLT_8D_H+BFLT_8D_H+BFLT_8D_H,610+610+610+610+610
39CQ3438,1,BFLT_F+BFLT_F+BFLT_F+BFLT_F+BFLT_F+BFLT_F,610+610+610+610+610+305,BFLT_6D_T+BFLT_6D_T+BFLT_6D_T+BFLT_6D_T+BFLT_6D_T+BFLT_6D_T,610+610+610+610+610+610
39CQ3438,2,PFLT_F+PFLT_F+PFLT_F+PFLT_F+PFLT_F+PFLT_F,610+610+610+610+610+305,PFLT_F+PFLT_F+PFLT_F+PFLT_F+PFLT_F+PFLT_F,610+610+610+610+610+610
39CQ3438,5,VFLT_F+VFLT_F+VFLT_F+VFLT_F+VFLT_F+VFLT_F,610+610+610+610+610+305,VFLT_6D_T+VFLT_6D_T+VFLT_6D_T+VFLT_6D_T+VFLT_6D_T+VFLT_6D_T,610+610+610+610+610+610
39CQ3438,H,BFLT_F_H+BFLT_F_H+BFLT_F_H+BFLT_F_H+BFLT_F_H,610+610+610+610+610+305,BFLT_8D_H+BFLT_8D_H+BFLT_8D_H+BFLT_8D_H+BFLT_8D_H+BFLT_8D_H,610+610+610+610+610+610
39CQ3841,1,BFLT_F+BFLT_F+BFLT_F+BFLT_F+BFLT_F+BFLT_F,610+610+610+610+610+610,BFLT_6D_T+BFLT_6D_T+BFLT_6D_T+BFLT_6D_T+BFLT_6D_T+BFLT_6D_T+BFLT_3D_T,610+610+610+610+610+610+305
39CQ3841,2,PFLT_F+PFLT_F+PFLT_F+PFLT_F+PFLT_F+PFLT_F,610+610+610+610+610+610,PFLT_F+PFLT_F+PFLT_F+PFLT_F+PFLT_F+PFLT_F+PFLT_F,610+610+610+610+610+610+305
39CQ3841,5,VFLT_F+VFLT_F+VFLT_F+VFLT_F+VFLT_F+VFLT_F,610+610+610+610+610+610,VFLT_6D_T+VFLT_6D_T+VFLT_6D_T+VFLT_6D_T+VFLT_6D_T+VFLT_6D_T+VFLT_3D_T,610+610+610+610+610+610+305
39CQ3841,H,BFLT_F_H+BFLT_F_H+BFLT_F_H+BFLT_F_H+BFLT_F_H,610+610+610+610+610+610,BFLT_8D_H+BFLT_8D_H+BFLT_8D_H+BFLT_8D_H+BFLT_8D_H+BFLT_8D_H+BFLT_4D_H,610+610+610+610+610+610+305
39CQ4444,1,BFLT_F+BFLT_F+BFLT_F+BFLT_F+BFLT_F+BFLT_F+BFLT_F,610+610+610+610+610+610+610,BFLT_6D_T+BFLT_6D_T+BFLT_6D_T+BFLT_6D_T+BFLT_6D_T+BFLT_6D_T+BFLT_6D_T,610+610+610+610+610+610+610
39CQ4444,2,PFLT_F+PFLT_F+PFLT_F+PFLT_F+PFLT_F+PFLT_F+PFLT_F,610+610+610+610+610+610+610,PFLT_F+PFLT_F+PFLT_F+PFLT_F+PFLT_F+PFLT_F+PFLT_F,610+610+610+610+610+610+610
39CQ4444,5,VFLT_F+VFLT_F+VFLT_F+VFLT_F+VFLT_F+VFLT_F+VFLT_F,610+610+610+610+610+610+610,VFLT_6D_T+VFLT_6D_T+VFLT_6D_T+VFLT_6D_T+VFLT_6D_T+VFLT_6D_T+VFLT_6D_T,610+610+610+610+610+610+610
39CQ4444,H,BFLT_F_H+BFLT_F_H+BFLT_F_H+BFLT_F_H+BFLT_F_H+BFLT_F_H+BFLT_F_H,610+610+610+610+610+610+610,BFLT_8D_H+BFLT_8D_H+BFLT_8D_H+BFLT_8D_H+BFLT_8D_H+BFLT_8D_H+BFLT_8D_H,610+610+610+610+610+610+610
39CQ4750,1,BFLT_F+BFLT_F+BFLT_F+BFLT_F+BFLT_F+BFLT_F+BFLT_F+BFLT_F,610+610+610+610+610+610+610+305,BFLT_6D_T+BFLT_6D_T+BFLT_6D_T+BFLT_6D_T+BFLT_6D_T+BFLT_6D_T+BFLT_6D_T+BFLT_6D_T,610+610+610+610+610+610+610+610
39CQ4750,2,PFLT_F+PFLT_F+PFLT_F+PFLT_F+PFLT_F+PFLT_F+PFLT_F+PFLT_F,610+610+610+610+610+610+610+305,PFLT_F+PFLT_F+PFLT_F+PFLT_F+PFLT_F+PFLT_F+PFLT_F+PFLT_F,610+610+610+610+610+610+610+610
39CQ4750,5,VFLT_F+VFLT_F+VFLT_F+VFLT_F+VFLT_F+VFLT_F+VFLT_F+VFLT_F,610+610+610+610+610+610+610+305,VFLT_6D_T+VFLT_6D_T+VFLT_6D_T+VFLT_6D_T+VFLT_6D_T+VFLT_6D_T+VFLT_6D_T+VFLT_6D_T,610+610+610+610+610+610+610+610
39CQ4750,H,BFLT_F_H+BFLT_F_H+BFLT_F_H+BFLT_F_H+BFLT_F_H+BFLT_F_H+BFLT_F_H+BFLT_F_H,610+610+610+610+610+610+610+305,BFLT_8D_H+BFLT_8D_H+BFLT_8D_H+BFLT_8D_H+BFLT_8D_H+BFLT_8D_H+BFLT_8D_H+BFLT_8D_H,610+610+610+610+610+610+610+610
39G0608,3,WCGTJ_T+WCG11+WCGTJ_B,114+400+114,WCGTJ_T+WCG11+WCGTJ_B,114+600+114
39G0609,3,WCGTJ_T+WCG11+WCGTJ_B,114+400+114,WCGTJ_T+WCG11+WCG11+WCGTJ_B,64+400+400+64
39G1015,3,WCGTJ_T+WCG11+WCG11+WCGTJ_B,114+400+400+114,WCGTJ_T+WCG11+WCG11+WCG11+WCGTJ_B,114+399+399+502+114
39G1117,3,WCGTJ_T+WCG11+WCG11+WCGTJ_B,114+400+500+114,WCGTJ_T+WCG11+WCG11+WCG11+WCGTJ_B,114+500+500+500+114
39G1822,3,WCGTJ_T+WCG11+WCG11+WCG11+WCGTJ_B,114+400+600+600+114,WCGTJ_T+WCG11+WCG11+WCG11+WCG11+WCGTJ_B,114+500+500+500+500+114
39G1825,3,WCGTJ_T+WCG11+WCG11+WCG11+WCGTJ_B,114+400+600+600+114,WCGTJ_T+WCG11+WCG11+WCG11+WCG11+WCG11+WCGTJ_B,125+496+496+496+395+395+125
39G2025,3,WCGTJ_T+WCG11+WCG11+WCG11+WCGTJ_B,114+400+700+700+114,WCGTJ_T+WCG11+WCG11+WCG11+WCG11+WCG11+WCGTJ_B,125+496+496+496+395+395+125
39G0711,3,WCGTJ_T+WCG11+WCGTJ_B,114+500+114,WCGTJ_T+WCG11+WCG11+WCGTJ_B,114+500+400+114
39G2328,3,WCGTJ_T+WCG11+WCG11+WCG11+WCG11+WCGTJ_B,114+500+500+500+600+114,WCGTJ_T+WCG11+WCG11+WCG11+WCG11+WCG11+WCG11+WCGTJ_B,130+496+496+394+394+394+394+130
39G2330,3,WCGTJ_T+WCG11+WCG11+WCG11+WCG11+WCGTJ_B,114+500+500+500+600+114,WCGTJ_T+WCG11+WCG11+WCG11+WCG11+WCG11+WCG11+WCG11+WCGTJ_B,135+495+495+496+393+393+393+393+135
39G2333,3,WCGTJ_T+WCG11+WCG11+WCG11+WCG11+WCGTJ_B,114+500+500+500+600+114,WCGTJ_T+WCG11+WCG11+WCG11+WCG11+WCG11+WCG11+WCG11+WCGTJ_B,135+495+495+496+393+393+393+393+135
39G1317,3,WCGTJ_T+WCG11+WCG11+WCGTJ_B,114+500+600+114,WCGTJ_T+WCG11+WCG11+WCG11+WCGTJ_B,114+500+500+500+114
39G2125,3,WCGTJ_T+WCG11+WCG11+WCG11+WCGTJ_B,114+500+700+700+114,WCGTJ_T+WCG11+WCG11+WCG11+WCG11+WCG11+WCGTJ_B,125+496+496+496+395+395+125
39G0811,3,WCGTJ_T+WCG11+WCGTJ_B,114+600+114,WCGTJ_T+WCG11+WCG11+WCGTJ_B,114+500+400+114
39G1418,3,WCGTJ_T+WCG11+WCG11+WCGTJ_B,114+600+600+114,WCGTJ_T+WCG11+WCG11+WCG11+WCGTJ_B,114+500+500+600+114
39G1420,3,WCGTJ_T+WCG11+WCG11+WCGTJ_B,114+600+600+114,WCGTJ_T+WCG11+WCG11+WCG11+WCGTJ_B,114+600+600+600+114
39G2226,3,WCGTJ_T+WCG11+WCG11+WCG11+WCGTJ_B,114+600+700+700+114,WCGTJ_T+WCG11+WCG11+WCG11+WCG11+WCG11+WCGTJ_B,125+496+496+496+496+394+125
39G0912,3,WCGTJ_T+WCG11+WCGTJ_B,114+700+114,WCGTJ_T+WCG11+WCG11+WCGTJ_B,114+500+500+114
39G0913,3,WCGTJ_T+WCG11+WCGTJ_B,114+700+114,WCGTJ_T+WCG11+WCG11+WCG11+WCGTJ_B,70+396+396+396+70
39G0914,3,WCGTJ_T+WCG11+WCGTJ_B,114+700+114,WCGTJ_T+WCG11+WCG11+WCG11+WCGTJ_B,114+400+400+400+114
39G1621,3,WCGTJ_T+WCG11+WCG11+WCGTJ_B,114+700+700+114,WCGTJ_T+WCG11+WCG11+WCG11+WCG11+WCGTJ_B,120+497+497+497+397+120
39G1015,1,BFLT_F+BFLT_F,305+610,BFLT_6D_T+BFLT_6D_T,610+610
39G1015,2,PFLT_F+PFLT_F,305+610,PFLT_F+PFLT_F,610+610
39G1015,5,VFLT_F+VFLT_F,305+610,VFLT_6D_T+VFLT_6D_T,610+610
39G1015,6,XFLT_F+XFLT_F,305+610,XFLT_T+XFLT_T,610+610
39G1015,7,JDFLT_F+JDFLT_F,305+610,JDFLT_T+JDFLT_T,610+610
39G1015,H,BFLT_F_H+BFLT_F_H,305+610,BFLT_8D_H+BFLT_8D_H,610+610
39G0912,1,BFLT_F+BFLT_F,406+406,BFLT_6D_T+BFLT_5D_T,610+508
39G0913,1,BFLT_F+BFLT_F,406+406,BFLT_6D_T+BFLT_5D_T,610+508
39G0914,1,BFLT_F+BFLT_F,406+406,BFLT_6D_T+BFLT_6D_T,610+610
39G0912,2,PFLT_F+PFLT_F,406+406,PFLT_F+PFLT_F,610+508
39G0913,2,PFLT_F+PFLT_F,406+406,PFLT_F+PFLT_F,610+508
39G0914,2,PFLT_F+PFLT_F,406+406,PFLT_F+PFLT_F,610+610
39G0912,5,VFLT_F+VFLT_F,406+406,VFLT_6D_T+VFLT_5D_T,610+508
39G0913,5,VFLT_F+VFLT_F,406+406,VFLT_6D_T+VFLT_5D_T,610+508
39G0914,5,VFLT_F+VFLT_F,406+406,VFLT_6D_T+VFLT_6D_T,610+610
39G0912,6,XFLT_F+XFLT_F,406+406,XFLT_T+XFLT_T,610+508
39G0913,6,XFLT_F+XFLT_F,406+406,XFLT_T+XFLT_T,610+508
39G0914,6,XFLT_F+XFLT_F,406+406,XFLT_T+XFLT_T,610+610
39G0912,7,JDFLT_F+JDFLT_F,406+406,JDFLT_T+JDFLT_T,610+508
39G0913,7,JDFLT_F+JDFLT_F,406+406,JDFLT_T+JDFLT_T,610+508
39G0914,7,JDFLT_F+JDFLT_F,406+406,JDFLT_T+JDFLT_T,610+610
39G0912,H,BFLT_F_H+BFLT_F_H,406+406,BFLT_8D_H+BFLT_7D_H,610+508
39G0913,H,BFLT_F_H+BFLT_F_H,406+406,BFLT_8D_H+BFLT_7D_H,610+508
39G0914,H,BFLT_F_H+BFLT_F_H,406+406,BFLT_8D_H+BFLT_8D_H,610+610
39G1117,1,BFLT_F+BFLT_F,406+610,BFLT_6D_T+BFLT_6D_T+BFLT_4D_T,610+610+406
39G1117,2,PFLT_F+PFLT_F,406+610,PFLT_F+PFLT_F+PFLT_F,610+610+406
39G1117,5,VFLT_F+VFLT_F,406+610,VFLT_6D_T+VFLT_6D_T+VFLT_4D_T,610+610+406
39G1117,6,XFLT_F+XFLT_F,406+610,XFLT_T+XFLT_T+XFLT_T,610+610+406
39G1117,7,JDFLT_F+JDFLT_F,406+610,JDFLT_T+JDFLT_T+JDFLT_T,610+610+406
39G1117,H,BFLT_F_H+BFLT_F_H,406+610,BFLT_8D_H+BFLT_8D_H+BFLT_6D_H,610+610+406
39G0608,1,BFLT_F,508,BFLT_3D_T+BFLT_3D_T,305+305
39G0609,1,BFLT_F,508,BFLT_4D_T+BFLT_4D_T,406+406
39G0608,2,PFLT_F,508,PFLT_F+PFLT_F,305+305
39G0609,2,PFLT_F,508,PFLT_F+PFLT_F,406+406
39G0608,5,VFLT_F,508,VFLT_3D_T+VFLT_3D_T,305+305
39G0609,5,VFLT_F,508,VFLT_4D_T+VFLT_4D_T,406+406
39G0608,6,XFLT_F,508,XFLT_T+XFLT_T,305+305
39G0609,6,XFLT_F,508,XFLT_T+XFLT_T,406+406
39G0608,7,JDFLT_F,508,JDFLT_T+JDFLT_T,305+305
39G0609,7,JDFLT_F,508,JDFLT_T+JDFLT_T,406+406
39G0608,H,BFLT_F_H,508,BFLT_4D_H+BFLT_4D_H,305+305
39G0609,H,BFLT_F_H,508,BFLT_6D_H+BFLT_6D_H,406+406
39G0711,1,BFLT_F,610,BFLT_3D_T+BFLT_3D_T+BFLT_3D_T,305+305+305
39G0811,1,BFLT_F,610,BFLT_3D_T+BFLT_3D_T+BFLT_4D_T,305+305+406
39G0711,2,PFLT_F,610,PFLT_F+PFLT_F+PFLT_F,305+305+305
39G0811,2,PFLT_F,610,PFLT_F+PFLT_F+PFLT_F,305+305+406
39G0711,5,VFLT_F,610,VFLT_3D_T+VFLT_3D_T+VFLT_3D_T,305+305+305
39G0811,5,VFLT_F,610,VFLT_3D_T+VFLT_3D_T+VFLT_4D_T,305+305+406
39G0711,6,XFLT_F,610,XFLT_T+XFLT_T+XFLT_T,305+305+305
39G0811,6,XFLT_F,610,XFLT_T+XFLT_T+XFLT_T,305+305+406
39G0711,7,JDFLT_F,610,JDFLT_T+JDFLT_T+JDFLT_T,305+305+305
39G0811,7,JDFLT_F,610,JDFLT_T+JDFLT_T+JDFLT_T,305+305+406
39G0711,H,BFLT_F_H,610,BFLT_4D_H+BFLT_4D_H+BFLT_4D_H,305+305+305
39G0811,H,BFLT_F_H,610,BFLT_4D_H+BFLT_4D_H+BFLT_6D_H,305+305+406
39G1317,1,BFLT_F+BFLT_F,610+610,BFLT_6D_T+BFLT_6D_T+BFLT_3D_T,610+610+305
39G1418,1,BFLT_F+BFLT_F,610+610,BFLT_6D_T+BFLT_6D_T+BFLT_4D_T,610+610+406
39G1420,1,BFLT_F+BFLT_F,610+610,BFLT_6D_T+BFLT_6D_T+BFLT_6D_T,610+610+610
39G1317,2,PFLT_F+PFLT_F,610+610,PFLT_F+PFLT_F+PFLT_F,610+610+305
39G1418,2,PFLT_F+PFLT_F,610+610,PFLT_F+PFLT_F+PFLT_F,610+610+406
39G1420,2,PFLT_F+PFLT_F,610+610,PFLT_F+PFLT_F+PFLT_F,610+610+610
39G1317,5,VFLT_F+VFLT_F,610+610,VFLT_6D_T+VFLT_6D_T+VFLT_3D_T,610+610+305
39G1418,5,VFLT_F+VFLT_F,610+610,VFLT_6D_T+VFLT_6D_T+VFLT_4D_T,610+610+406
39G1420,5,VFLT_F+VFLT_F,610+610,VFLT_6D_T+VFLT_6D_T+VFLT_6D_T,610+610+610
39G1317,6,XFLT_F+XFLT_F,610+610,XFLT_T+XFLT_T+XFLT_T,610+610+305
39G1418,6,XFLT_F+XFLT_F,610+610,XFLT_T+XFLT_T+XFLT_T,610+610+406
39G1420,6,XFLT_F+XFLT_F,610+610,XFLT_T+XFLT_T+XFLT_T,610+610+610
39G1317,7,JDFLT_F+JDFLT_F,610+610,JDFLT_T+JDFLT_T+JDFLT_T,610+610+305
39G1418,7,JDFLT_F+JDFLT_F,610+610,JDFLT_T+JDFLT_T+JDFLT_T,610+610+406
39G1420,7,JDFLT_F+JDFLT_F,610+610,JDFLT_T+JDFLT_T+JDFLT_T,610+610+610
39G1317,H,BFLT_F_H+BFLT_F_H,610+610,BFLT_8D_H+BFLT_8D_H+BFLT_4D_H,610+610+305
39G1418,H,BFLT_F_H+BFLT_F_H,610+610,BFLT_8D_H+BFLT_8D_H+BFLT_6D_H,610+610+406
39G1420,H,BFLT_F_H+BFLT_F_H,610+610,BFLT_8D_H+BFLT_8D_H+BFLT_8D_H,610+610+610
39G1621,1,BFLT_F+BFLT_F+BFLT_F,610+610+305,BFLT_6D_T+BFLT_6D_T+BFLT_6D_T,610+610+610
39G1825,1,BFLT_F+BFLT_F+BFLT_F,610+610+305,BFLT_6D_T+BFLT_6D_T+BFLT_6D_T+BFLT_6D_T,610+610+610+610
39G1621,2,PFLT_F+PFLT_F+PFLT_F,610+610+305,PFLT_F+PFLT_F+PFLT_F,610+610+610
39G1825,2,PFLT_F+PFLT_F+PFLT_F,610+610+305,PFLT_F+PFLT_F+PFLT_F+PFLT_F,610+610+610+610
39G1621,5,VFLT_F+VFLT_F+VFLT_F,610+610+305,VFLT_6D_T+VFLT_6D_T+VFLT_6D_T,610+610+610
39G1825,5,VFLT_F+VFLT_F+VFLT_F,610+610+305,VFLT_6D_T+VFLT_6D_T+VFLT_6D_T+VFLT_6D_T,610+610+610+610
39G1621,6,XFLT_F+XFLT_F+XFLT_F,610+610+305,XFLT_T+XFLT_T+XFLT_T,610+610+610
39G1825,6,XFLT_F+XFLT_F+XFLT_F,610+610+305,XFLT_T+XFLT_T+XFLT_T+XFLT_T,610+610+610+610
39G1621,7,JDFLT_F+JDFLT_F+JDFLT_F,610+610+305,JDFLT_T+JDFLT_T+JDFLT_T,610+610+610
39G1825,7,JDFLT_F+JDFLT_F+JDFLT_F,610+610+305,JDFLT_T+JDFLT_T+JDFLT_T+JDFLT_T,610+610+610+610
39G1621,H,BFLT_F_H+BFLT_F_H+BFLT_F_H,610+610+305,BFLT_8D_H+BFLT_8D_H+BFLT_8D_H,610+610+610
39G1825,H,BFLT_F_H+BFLT_F_H+BFLT_F_H,610+610+305,BFLT_8D_H+BFLT_8D_H+BFLT_8D_H+BFLT_8D_H,610+610+610+610
39G1822,1,BFLT_F+BFLT_F+BFLT_F,610+610+406,BFLT_6D_T+BFLT_6D_T+BFLT_6D_T+BFLT_3D_T,610+610+610+305
39G1822,2,PFLT_F+PFLT_F+PFLT_F,610+610+406,PFLT_F+PFLT_F+PFLT_F+PFLT_F,610+610+610+305
39G1822,5,VFLT_F+VFLT_F+VFLT_F,610+610+406,VFLT_6D_T+VFLT_6D_T+VFLT_6D_T+VFLT_3D_T,610+610+610+305
39G1822,6,XFLT_F+XFLT_F+XFLT_F,610+610+406,XFLT_T+XFLT_T+XFLT_T+XFLT_T,610+610+610+305
39G1822,7,JDFLT_F+JDFLT_F+JDFLT_F,610+610+406,JDFLT_T+JDFLT_T+JDFLT_T+JDFLT_T,610+610+610+305
39G1822,H,BFLT_F_H+BFLT_F_H+BFLT_F_H,610+610+406,BFLT_8D_H+BFLT_8D_H+BFLT_8D_H+BFLT_4D_H,610+610+610+305
39G2025,1,BFLT_F+BFLT_F+BFLT_F,610+610+610,BFLT_6D_T+BFLT_6D_T+BFLT_6D_T+BFLT_6D_T,610+610+610+610
39G2125,1,BFLT_F+BFLT_F+BFLT_F,610+610+610,BFLT_6D_T+BFLT_6D_T+BFLT_6D_T+BFLT_6D_T,610+610+610+610
39G2025,2,PFLT_F+PFLT_F+PFLT_F,610+610+610,PFLT_F+PFLT_F+PFLT_F+PFLT_F,610+610+610+610
39G2125,2,PFLT_F+PFLT_F+PFLT_F,610+610+610,PFLT_F+PFLT_F+PFLT_F+PFLT_F,610+610+610+610
39G2025,5,VFLT_F+VFLT_F+VFLT_F,610+610+610,VFLT_6D_T+VFLT_6D_T+VFLT_6D_T+VFLT_6D_T,610+610+610+610
39G2125,5,VFLT_F+VFLT_F+VFLT_F,610+610+610,VFLT_6D_T+VFLT_6D_T+VFLT_6D_T+VFLT_6D_T,610+610+610+610
39G2025,6,XFLT_F+XFLT_F+XFLT_F,610+610+610,XFLT_T+XFLT_T+XFLT_T+XFLT_T,610+610+610+610
39G2125,6,XFLT_F+XFLT_F+XFLT_F,610+610+610,XFLT_T+XFLT_T+XFLT_T+XFLT_T,610+610+610+610
39G2025,7,JDFLT_F+JDFLT_F+JDFLT_F,610+610+610,JDFLT_T+JDFLT_T+JDFLT_T+JDFLT_T,610+610+610+610
39G2125,7,JDFLT_F+JDFLT_F+JDFLT_F,610+610+610,JDFLT_T+JDFLT_T+JDFLT_T+JDFLT_T,610+610+610+610
39G2025,H,BFLT_F_H+BFLT_F_H+BFLT_F_H,610+610+610,BFLT_8D_H+BFLT_8D_H+BFLT_8D_H+BFLT_8D_H,610+610+610+610
39G2125,H,BFLT_F_H+BFLT_F_H+BFLT_F_H,610+610+610,BFLT_8D_H+BFLT_8D_H+BFLT_8D_H+BFLT_8D_H,610+610+610+610
39G2226,1,BFLT_F+BFLT_F+BFLT_F+BFLT_F,610+610+610+305,BFLT_6D_T+BFLT_6D_T+BFLT_6D_T+BFLT_6D_T,610+610+610+610
39G2328,1,BFLT_F+BFLT_F+BFLT_F+BFLT_F,610+610+610+305,BFLT_6D_T+BFLT_6D_T+BFLT_6D_T+BFLT_6D_T+BFLT_3D_T,610+610+610+610+305
39G2226,2,PFLT_F+PFLT_F+PFLT_F+PFLT_F,610+610+610+305,PFLT_F+PFLT_F+PFLT_F+PFLT_F,610+610+610+610
39G2328,2,PFLT_F+PFLT_F+PFLT_F+PFLT_F,610+610+610+305,PFLT_F+PFLT_F+PFLT_F+PFLT_F+PFLT_F,610+610+610+610+305
39G2226,5,VFLT_F+VFLT_F+VFLT_F+VFLT_F,610+610+610+305,VFLT_6D_T+VFLT_6D_T+VFLT_6D_T+VFLT_6D_T,610+610+610+610
39G2328,5,VFLT_F+VFLT_F+VFLT_F+VFLT_F,610+610+610+305,VFLT_6D_T+VFLT_6D_T+VFLT_6D_T+VFLT_6D_T+VFLT_3D_T,610+610+610+610+305
39G2226,6,XFLT_F+XFLT_F+XFLT_F+XFLT_F,610+610+610+305,XFLT_T+XFLT_T+XFLT_T+XFLT_T,610+610+610+610
39G2328,6,XFLT_F+XFLT_F+XFLT_F+XFLT_F,610+610+610+305,XFLT_T+XFLT_T+XFLT_T+XFLT_T+XFLT_T,610+610+610+610+305
39G2226,7,JDFLT_F+JDFLT_F+JDFLT_F+JDFLT_F,610+610+610+305,JDFLT_T+JDFLT_T+JDFLT_T+JDFLT_T,610+610+610+610
39G2328,7,JDFLT_F+JDFLT_F+JDFLT_F+JDFLT_F,610+610+610+305,JDFLT_T+JDFLT_T+JDFLT_T+JDFLT_T+JDFLT_T,610+610+610+610+305
39G2226,H,BFLT_F_H+BFLT_F_H+BFLT_F_H+BFLT_F_H,610+610+610+305,BFLT_8D_H+BFLT_8D_H+BFLT_8D_H+BFLT_8D_H,610+610+610+610
39G2328,H,BFLT_F_H+BFLT_F_H+BFLT_F_H+BFLT_F_H,610+610+610+305,BFLT_8D_H+BFLT_8D_H+BFLT_8D_H+BFLT_8D_H+BFLT_4D_H,610+610+610+610+305
39G2330,1,BFLT_F+BFLT_F+BFLT_F+BFLT_F,610+610+610+406,BFLT_6D_T+BFLT_6D_T+BFLT_6D_T+BFLT_6D_T+BFLT_6D_T,610+610+610+610+610
39G2333,1,BFLT_F+BFLT_F+BFLT_F+BFLT_F,610+610+610+406,BFLT_6D_T+BFLT_6D_T+BFLT_6D_T+BFLT_6D_T+BFLT_6D_T,610+610+610+610+610
39G2330,2,PFLT_F+PFLT_F+PFLT_F+PFLT_F,610+610+610+406,PFLT_F+PFLT_F+PFLT_F+PFLT_F+PFLT_F,610+610+610+610+610
39G2333,2,PFLT_F+PFLT_F+PFLT_F+PFLT_F,610+610+610+406,PFLT_F+PFLT_F+PFLT_F+PFLT_F+PFLT_F,610+610+610+610+610
39G2330,5,VFLT_F+VFLT_F+VFLT_F+VFLT_F,610+610+610+406,VFLT_6D_T+VFLT_6D_T+VFLT_6D_T+VFLT_6D_T+VFLT_6D_T,610+610+610+610+610
39G2333,5,VFLT_F+VFLT_F+VFLT_F+VFLT_F,610+610+610+406,VFLT_6D_T+VFLT_6D_T+VFLT_6D_T+VFLT_6D_T+VFLT_6D_T,610+610+610+610+610
39G2330,6,XFLT_F+XFLT_F+XFLT_F+XFLT_F,610+610+610+406,XFLT_T+XFLT_T+XFLT_T+XFLT_T+XFLT_T,610+610+610+610+610
39G2333,6,XFLT_F+XFLT_F+XFLT_F+XFLT_F,610+610+610+406,XFLT_T+XFLT_T+XFLT_T+XFLT_T+XFLT_T,610+610+610+610+610
39G2330,7,JDFLT_F+JDFLT_F+JDFLT_F+JDFLT_F,610+610+610+406,JDFLT_T+JDFLT_T+JDFLT_T+JDFLT_T+JDFLT_T,610+610+610+610+610
39G2333,7,JDFLT_F+JDFLT_F+JDFLT_F+JDFLT_F,610+610+610+406,JDFLT_T+JDFLT_T+JDFLT_T+JDFLT_T+JDFLT_T,610+610+610+610+610
39G2330,H,BFLT_F_H+BFLT_F_H+BFLT_F_H+BFLT_F_H,610+610+610+406,BFLT_8D_H+BFLT_8D_H+BFLT_8D_H+BFLT_8D_H+BFLT_8D_H,610+610+610+610+610
39G2333,H,BFLT_F_H+BFLT_F_H+BFLT_F_H+BFLT_F_H,610+610+610+406,BFLT_8D_H+BFLT_8D_H+BFLT_8D_H+BFLT_8D_H+BFLT_8D_H,610+610+610+610+610
39G2532,1,BFLT_F+BFLT_F+BFLT_F+BFLT_F,610+610+610+610,BFLT_6D_T+BFLT_6D_T+BFLT_6D_T+BFLT_6D_T+BFLT_6D_T,610+610+610+610+610
39G2532,2,PFLT_F+PFLT_F+PFLT_F+PFLT_F,610+610+610+610,PFLT_F+PFLT_F+PFLT_F+PFLT_F+PFLT_F,610+610+610+610+610
39G2532,5,VFLT_F+VFLT_F+VFLT_F+VFLT_F,610+610+610+610,VFLT_6D_T+VFLT_6D_T+VFLT_6D_T+VFLT_6D_T+VFLT_6D_T,610+610+610+610+610
39G2532,H,BFLT_F_H+BFLT_F_H+BFLT_F_H+BFLT_F_H,610+610+610+610,BFLT_8D_H+BFLT_8D_H+BFLT_8D_H+BFLT_8D_H+BFLT_8D_H,610+610+610+610+610
39G2832,1,BFLT_F+BFLT_F+BFLT_F+BFLT_F+BFLT_F,610+610+610+610+305,BFLT_6D_T+BFLT_6D_T+BFLT_6D_T+BFLT_6D_T+BFLT_6D_T,610+610+610+610+610
39G2832,2,PFLT_F+PFLT_F+PFLT_F+PFLT_F+PFLT_F,610+610+610+610+305,PFLT_F+PFLT_F+PFLT_F+PFLT_F+PFLT_F,610+610+610+610+610
39G2832,5,VFLT_F+VFLT_F+VFLT_F+VFLT_F+VFLT_F,610+610+610+610+305,VFLT_6D_T+VFLT_6D_T+VFLT_6D_T+VFLT_6D_T+VFLT_6D_T,610+610+610+610+610
39G2832,H,BFLT_F_H+BFLT_F_H+BFLT_F_H+BFLT_F_H+BFLT_F_H,610+610+610+610+305,BFLT_8D_H+BFLT_8D_H+BFLT_8D_H+BFLT_8D_H+BFLT_8D_H,610+610+610+610+610
39G3132,1,BFLT_F+BFLT_F+BFLT_F+BFLT_F+BFLT_F,610+610+610+610+610,BFLT_6D_T+BFLT_6D_T+BFLT_6D_T+BFLT_6D_T+BFLT_6D_T,610+610+610+610+610
39G3132,2,PFLT_F+PFLT_F+PFLT_F+PFLT_F+PFLT_F,610+610+610+610+610,PFLT_F+PFLT_F+PFLT_F+PFLT_F+PFLT_F,610+610+610+610+610
39G3132,5,VFLT_F+VFLT_F+VFLT_F+VFLT_F+VFLT_F,610+610+610+610+610,VFLT_6D_T+VFLT_6D_T+VFLT_6D_T+VFLT_6D_T+VFLT_6D_T,610+610+610+610+610
39G3132,H,BFLT_F_H+BFLT_F_H+BFLT_F_H+BFLT_F_H+BFLT_F_H,610+610+610+610+610,BFLT_8D_H+BFLT_8D_H+BFLT_8D_H+BFLT_8D_H+BFLT_8D_H,610+610+610+610+610
39G3438,1,BFLT_F+BFLT_F+BFLT_F+BFLT_F+BFLT_F+BFLT_F,610+610+610+610+610+305,BFLT_6D_T+BFLT_6D_T+BFLT_6D_T+BFLT_6D_T+BFLT_6D_T+BFLT_6D_T,610+610+610+610+610+610
39G3438,2,PFLT_F+PFLT_F+PFLT_F+PFLT_F+PFLT_F+PFLT_F,610+610+610+610+610+305,PFLT_F+PFLT_F+PFLT_F+PFLT_F+PFLT_F+PFLT_F,610+610+610+610+610+610
39G3438,5,VFLT_F+VFLT_F+VFLT_F+VFLT_F+VFLT_F+VFLT_F,610+610+610+610+610+305,VFLT_6D_T+VFLT_6D_T+VFLT_6D_T+VFLT_6D_T+VFLT_6D_T+VFLT_6D_T,610+610+610+610+610+610
39G3438,H,BFLT_F_H+BFLT_F_H+BFLT_F_H+BFLT_F_H+BFLT_F_H,610+610+610+610+610+305,BFLT_8D_H+BFLT_8D_H+BFLT_8D_H+BFLT_8D_H+BFLT_8D_H+BFLT_8D_H,610+610+610+610+610+610
39G3841,1,BFLT_F+BFLT_F+BFLT_F+BFLT_F+BFLT_F+BFLT_F,610+610+610+610+610+610,BFLT_6D_T+BFLT_6D_T+BFLT_6D_T+BFLT_6D_T+BFLT_6D_T+BFLT_6D_T+BFLT_3D_T,610+610+610+610+610+610+305
39G3841,2,PFLT_F+PFLT_F+PFLT_F+PFLT_F+PFLT_F+PFLT_F,610+610+610+610+610+610,PFLT_F+PFLT_F+PFLT_F+PFLT_F+PFLT_F+PFLT_F+PFLT_F,610+610+610+610+610+610+305
39G3841,5,VFLT_F+VFLT_F+VFLT_F+VFLT_F+VFLT_F+VFLT_F,610+610+610+610+610+610,VFLT_6D_T+VFLT_6D_T+VFLT_6D_T+VFLT_6D_T+VFLT_6D_T+VFLT_6D_T+VFLT_3D_T,610+610+610+610+610+610+305
39G3841,H,BFLT_F_H+BFLT_F_H+BFLT_F_H+BFLT_F_H+BFLT_F_H,610+610+610+610+610+610,BFLT_8D_H+BFLT_8D_H+BFLT_8D_H+BFLT_8D_H+BFLT_8D_H+BFLT_8D_H+BFLT_4D_H,610+610+610+610+610+610+305
39G4444,1,BFLT_F+BFLT_F+BFLT_F+BFLT_F+BFLT_F+BFLT_F+BFLT_F,610+610+610+610+610+610+610,BFLT_6D_T+BFLT_6D_T+BFLT_6D_T+BFLT_6D_T+BFLT_6D_T+BFLT_6D_T+BFLT_6D_T,610+610+610+610+610+610+610
39G4444,2,PFLT_F+PFLT_F+PFLT_F+PFLT_F+PFLT_F+PFLT_F+PFLT_F,610+610+610+610+610+610+610,PFLT_F+PFLT_F+PFLT_F+PFLT_F+PFLT_F+PFLT_F+PFLT_F,610+610+610+610+610+610+610
39G4444,5,VFLT_F+VFLT_F+VFLT_F+VFLT_F+VFLT_F+VFLT_F+VFLT_F,610+610+610+610+610+610+610,VFLT_6D_T+VFLT_6D_T+VFLT_6D_T+VFLT_6D_T+VFLT_6D_T+VFLT_6D_T+VFLT_6D_T,610+610+610+610+610+610+610
39G4444,H,BFLT_F_H+BFLT_F_H+BFLT_F_H+BFLT_F_H+BFLT_F_H+BFLT_F_H+BFLT_F_H,610+610+610+610+610+610+610,BFLT_8D_H+BFLT_8D_H+BFLT_8D_H+BFLT_8D_H+BFLT_8D_H+BFLT_8D_H+BFLT_8D_H,610+610+610+610+610+610+610
39G4750,1,BFLT_F+BFLT_F+BFLT_F+BFLT_F+BFLT_F+BFLT_F+BFLT_F+BFLT_F,610+610+610+610+610+610+610+305,BFLT_6D_T+BFLT_6D_T+BFLT_6D_T+BFLT_6D_T+BFLT_6D_T+BFLT_6D_T+BFLT_6D_T+BFLT_6D_T,610+610+610+610+610+610+610+610
39G4750,2,PFLT_F+PFLT_F+PFLT_F+PFLT_F+PFLT_F+PFLT_F+PFLT_F+PFLT_F,610+610+610+610+610+610+610+305,PFLT_F+PFLT_F+PFLT_F+PFLT_F+PFLT_F+PFLT_F+PFLT_F+PFLT_F,610+610+610+610+610+610+610+610
39G4750,5,VFLT_F+VFLT_F+VFLT_F+VFLT_F+VFLT_F+VFLT_F+VFLT_F+VFLT_F,610+610+610+610+610+610+610+305,VFLT_6D_T+VFLT_6D_T+VFLT_6D_T+VFLT_6D_T+VFLT_6D_T+VFLT_6D_T+VFLT_6D_T+VFLT_6D_T,610+610+610+610+610+610+610+610
39G4750,H,BFLT_F_H+BFLT_F_H+BFLT_F_H+BFLT_F_H+BFLT_F_H+BFLT_F_H+BFLT_F_H+BFLT_F_H,610+610+610+610+610+610+610+305,BFLT_8D_H+BFLT_8D_H+BFLT_8D_H+BFLT_8D_H+BFLT_8D_H+BFLT_8D_H+BFLT_8D_H+BFLT_8D_H,610+610+610+610+610+610+610+610
39XT0608,3,WCGTJ_T+WCG11+WCGTJ_B,114+400+114,WCGTJ_T+WCG11+WCGTJ_B,114+600+114
39XT0609,3,WCGTJ_T+WCG11+WCGTJ_B,114+400+114,WCGTJ_T+WCG11+WCG11+WCGTJ_B,64+400+400+64
39XT1015,3,WCGTJ_T+WCG11+WCG11+WCGTJ_B,114+400+400+114,WCGTJ_T+WCG11+WCG11+WCG11+WCGTJ_B,114+399+399+502+114
39XT1117,3,WCGTJ_T+WCG11+WCG11+WCGTJ_B,114+400+500+114,WCGTJ_T+WCG11+WCG11+WCG11+WCGTJ_B,114+500+500+500+114
39XT1822,3,WCGTJ_T+WCG11+WCG11+WCG11+WCGTJ_B,114+400+600+600+114,WCGTJ_T+WCG11+WCG11+WCG11+WCG11+WCGTJ_B,114+500+500+500+500+114
39XT1825,3,WCGTJ_T+WCG11+WCG11+WCG11+WCGTJ_B,114+400+600+600+114,WCGTJ_T+WCG11+WCG11+WCG11+WCG11+WCG11+WCGTJ_B,125+496+496+496+395+395+125
39XT2025,3,WCGTJ_T+WCG11+WCG11+WCG11+WCGTJ_B,114+400+700+700+114,WCGTJ_T+WCG11+WCG11+WCG11+WCG11+WCG11+WCGTJ_B,125+496+496+496+395+395+125
39XT0711,3,WCGTJ_T+WCG11+WCGTJ_B,114+500+114,WCGTJ_T+WCG11+WCG11+WCGTJ_B,114+500+400+114
39XT2328,3,WCGTJ_T+WCG11+WCG11+WCG11+WCG11+WCGTJ_B,114+500+500+500+600+114,WCGTJ_T+WCG11+WCG11+WCG11+WCG11+WCG11+WCG11+WCGTJ_B,130+496+496+394+394+394+394+130
39XT2330,3,WCGTJ_T+WCG11+WCG11+WCG11+WCG11+WCGTJ_B,114+500+500+500+600+114,WCGTJ_T+WCG11+WCG11+WCG11+WCG11+WCG11+WCG11+WCG11+WCGTJ_B,135+495+495+496+393+393+393+393+135
39XT2333,3,WCGTJ_T+WCG11+WCG11+WCG11+WCG11+WCGTJ_B,114+500+500+500+600+114,WCGTJ_T+WCG11+WCG11+WCG11+WCG11+WCG11+WCG11+WCG11+WCGTJ_B,135+495+495+496+393+393+393+393+135
39XT1317,3,WCGTJ_T+WCG11+WCG11+WCGTJ_B,114+500+600+114,WCGTJ_T+WCG11+WCG11+WCG11+WCGTJ_B,114+500+500+500+114
39XT2125,3,WCGTJ_T+WCG11+WCG11+WCG11+WCGTJ_B,114+500+700+700+114,WCGTJ_T+WCG11+WCG11+WCG11+WCG11+WCG11+WCGTJ_B,125+496+496+496+395+395+125
39XT0811,3,WCGTJ_T+WCG11+WCGTJ_B,114+600+114,WCGTJ_T+WCG11+WCG11+WCGTJ_B,114+500+400+114
39XT1418,3,WCGTJ_T+WCG11+WCG11+WCGTJ_B,114+600+600+114,WCGTJ_T+WCG11+WCG11+WCG11+WCGTJ_B,114+500+500+600+114
39XT1420,3,WCGTJ_T+WCG11+WCG11+WCGTJ_B,114+600+600+114,WCGTJ_T+WCG11+WCG11+WCG11+WCGTJ_B,114+600+600+600+114
39XT2226,3,WCGTJ_T+WCG11+WCG11+WCG11+WCGTJ_B,114+600+700+700+114,WCGTJ_T+WCG11+WCG11+WCG11+WCG11+WCG11+WCGTJ_B,125+496+496+496+496+394+125
39XT0912,3,WCGTJ_T+WCG11+WCGTJ_B,114+700+114,WCGTJ_T+WCG11+WCG11+WCGTJ_B,114+500+500+114
39XT0913,3,WCGTJ_T+WCG11+WCGTJ_B,114+700+114,WCGTJ_T+WCG11+WCG11+WCG11+WCGTJ_B,70+396+396+396+70
39XT0914,3,WCGTJ_T+WCG11+WCGTJ_B,114+700+114,WCGTJ_T+WCG11+WCG11+WCG11+WCGTJ_B,114+400+400+400+114
39XT1621,3,WCGTJ_T+WCG11+WCG11+WCGTJ_B,114+700+700+114,WCGTJ_T+WCG11+WCG11+WCG11+WCG11+WCGTJ_B,120+497+497+497+397+120
39XT1015,1,BFLT_F+BFLT_F,305+610,BFLT_6D_T+BFLT_6D_T,610+610
39XT1015,2,PFLT_F+PFLT_F,305+610,PFLT_F+PFLT_F,610+610
39XT1015,5,VFLT_F+VFLT_F,305+610,VFLT_6D_T+VFLT_6D_T,610+610
39XT1015,6,XFLT_F+XFLT_F,305+610,XFLT_T+XFLT_T,610+610
39XT1015,7,JDFLT_F+JDFLT_F,305+610,JDFLT_T+JDFLT_T,610+610
39XT1015,H,BFLT_F_H+BFLT_F_H,305+610,BFLT_8D_H+BFLT_8D_H,610+610
39XT0912,1,BFLT_F+BFLT_F,406+406,BFLT_6D_T+BFLT_5D_T,610+508
39XT0913,1,BFLT_F+BFLT_F,406+406,BFLT_6D_T+BFLT_5D_T,610+508
39XT0914,1,BFLT_F+BFLT_F,406+406,BFLT_6D_T+BFLT_6D_T,610+610
39XT0912,2,PFLT_F+PFLT_F,406+406,PFLT_F+PFLT_F,610+508
39XT0913,2,PFLT_F+PFLT_F,406+406,PFLT_F+PFLT_F,610+508
39XT0914,2,PFLT_F+PFLT_F,406+406,PFLT_F+PFLT_F,610+610
39XT0912,5,VFLT_F+VFLT_F,406+406,VFLT_6D_T+VFLT_5D_T,610+508
39XT0913,5,VFLT_F+VFLT_F,406+406,VFLT_6D_T+VFLT_5D_T,610+508
39XT0914,5,VFLT_F+VFLT_F,406+406,VFLT_6D_T+VFLT_6D_T,610+610
39XT0912,6,XFLT_F+XFLT_F,406+406,XFLT_T+XFLT_T,610+508
39XT0913,6,XFLT_F+XFLT_F,406+406,XFLT_T+XFLT_T,610+508
39XT0914,6,XFLT_F+XFLT_F,406+406,XFLT_T+XFLT_T,610+610
39XT0912,7,JDFLT_F+JDFLT_F,406+406,JDFLT_T+JDFLT_T,610+508
39XT0913,7,JDFLT_F+JDFLT_F,406+406,JDFLT_T+JDFLT_T,610+508
39XT0914,7,JDFLT_F+JDFLT_F,406+406,JDFLT_T+JDFLT_T,610+610
39XT0912,H,BFLT_F_H+BFLT_F_H,406+406,BFLT_8D_H+BFLT_7D_H,610+508
39XT0913,H,BFLT_F_H+BFLT_F_H,406+406,BFLT_8D_H+BFLT_7D_H,610+508
39XT0914,H,BFLT_F_H+BFLT_F_H,406+406,BFLT_8D_H+BFLT_8D_H,610+610
39XT1117,1,BFLT_F+BFLT_F,406+610,BFLT_6D_T+BFLT_6D_T+BFLT_4D_T,610+610+406
39XT1117,2,PFLT_F+PFLT_F,406+610,PFLT_F+PFLT_F+PFLT_F,610+610+406
39XT1117,5,VFLT_F+VFLT_F,406+610,VFLT_6D_T+VFLT_6D_T+VFLT_4D_T,610+610+406
39XT1117,6,XFLT_F+XFLT_F,406+610,XFLT_T+XFLT_T+XFLT_T,610+610+406
39XT1117,7,JDFLT_F+JDFLT_F,406+610,JDFLT_T+JDFLT_T+JDFLT_T,610+610+406
39XT1117,H,BFLT_F_H+BFLT_F_H,406+610,BFLT_8D_H+BFLT_8D_H+BFLT_6D_H,610+610+406
39XT0608,1,BFLT_F,508,BFLT_3D_T+BFLT_3D_T,305+305
39XT0609,1,BFLT_F,508,BFLT_4D_T+BFLT_4D_T,406+406
39XT0608,2,PFLT_F,508,PFLT_F+PFLT_F,305+305
39XT0609,2,PFLT_F,508,PFLT_F+PFLT_F,406+406
39XT0608,5,VFLT_F,508,VFLT_3D_T+VFLT_3D_T,305+305
39XT0609,5,VFLT_F,508,VFLT_4D_T+VFLT_4D_T,406+406
39XT0608,6,XFLT_F,508,XFLT_T+XFLT_T,305+305
39XT0609,6,XFLT_F,508,XFLT_T+XFLT_T,406+406
39XT0608,7,JDFLT_F,508,JDFLT_T+JDFLT_T,305+305
39XT0609,7,JDFLT_F,508,JDFLT_T+JDFLT_T,406+406
39XT0608,H,BFLT_F_H,508,BFLT_4D_H+BFLT_4D_H,305+305
39XT0609,H,BFLT_F_H,508,BFLT_6D_H+BFLT_6D_H,406+406
39XT0711,1,BFLT_F,610,BFLT_3D_T+BFLT_3D_T+BFLT_3D_T,305+305+305
39XT0811,1,BFLT_F,610,BFLT_3D_T+BFLT_3D_T+BFLT_4D_T,305+305+406
39XT0711,2,PFLT_F,610,PFLT_F+PFLT_F+PFLT_F,305+305+305
39XT0811,2,PFLT_F,610,PFLT_F+PFLT_F+PFLT_F,305+305+406
39XT0711,5,VFLT_F,610,VFLT_3D_T+VFLT_3D_T+VFLT_3D_T,305+305+305
39XT0811,5,VFLT_F,610,VFLT_3D_T+VFLT_3D_T+VFLT_4D_T,305+305+406
39XT0711,6,XFLT_F,610,XFLT_T+XFLT_T+XFLT_T,305+305+305
39XT0811,6,XFLT_F,610,XFLT_T+XFLT_T+XFLT_T,305+305+406
39XT0711,7,JDFLT_F,610,JDFLT_T+JDFLT_T+JDFLT_T,305+305+305
39XT0811,7,JDFLT_F,610,JDFLT_T+JDFLT_T+JDFLT_T,305+305+406
39XT0711,H,BFLT_F_H,610,BFLT_4D_H+BFLT_4D_H+BFLT_4D_H,305+305+305
39XT0811,H,BFLT_F_H,610,BFLT_4D_H+BFLT_4D_H+BFLT_6D_H,305+305+406
39XT1317,1,BFLT_F+BFLT_F,610+610,BFLT_6D_T+BFLT_6D_T+BFLT_3D_T,610+610+305
39XT1418,1,BFLT_F+BFLT_F,610+610,BFLT_6D_T+BFLT_6D_T+BFLT_4D_T,610+610+406
39XT1420,1,BFLT_F+BFLT_F,610+610,BFLT_6D_T+BFLT_6D_T+BFLT_6D_T,610+610+610
39XT1317,2,PFLT_F+PFLT_F,610+610,PFLT_F+PFLT_F+PFLT_F,610+610+305
39XT1418,2,PFLT_F+PFLT_F,610+610,PFLT_F+PFLT_F+PFLT_F,610+610+406
39XT1420,2,PFLT_F+PFLT_F,610+610,PFLT_F+PFLT_F+PFLT_F,610+610+610
39XT1317,5,VFLT_F+VFLT_F,610+610,VFLT_6D_T+VFLT_6D_T+VFLT_3D_T,610+610+305
39XT1418,5,VFLT_F+VFLT_F,610+610,VFLT_6D_T+VFLT_6D_T+VFLT_4D_T,610+610+406
39XT1420,5,VFLT_F+VFLT_F,610+610,VFLT_6D_T+VFLT_6D_T+VFLT_6D_T,610+610+610
39XT1317,6,XFLT_F+XFLT_F,610+610,XFLT_T+XFLT_T+XFLT_T,610+610+305
39XT1418,6,XFLT_F+XFLT_F,610+610,XFLT_T+XFLT_T+XFLT_T,610+610+406
39XT1420,6,XFLT_F+XFLT_F,610+610,XFLT_T+XFLT_T+XFLT_T,610+610+610
39XT1317,7,JDFLT_F+JDFLT_F,610+610,JDFLT_T+JDFLT_T+JDFLT_T,610+610+305
39XT1418,7,JDFLT_F+JDFLT_F,610+610,JDFLT_T+JDFLT_T+JDFLT_T,610+610+406
39XT1420,7,JDFLT_F+JDFLT_F,610+610,JDFLT_T+JDFLT_T+JDFLT_T,610+610+610
39XT1317,H,BFLT_F_H+BFLT_F_H,610+610,BFLT_8D_H+BFLT_8D_H+BFLT_4D_H,610+610+305
39XT1418,H,BFLT_F_H+BFLT_F_H,610+610,BFLT_8D_H+BFLT_8D_H+BFLT_6D_H,610+610+406
39XT1420,H,BFLT_F_H+BFLT_F_H,610+610,BFLT_8D_H+BFLT_8D_H+BFLT_8D_H,610+610+610
39XT1621,1,BFLT_F+BFLT_F+BFLT_F,610+610+305,BFLT_6D_T+BFLT_6D_T+BFLT_6D_T,610+610+610
39XT1825,1,BFLT_F+BFLT_F+BFLT_F,610+610+305,BFLT_6D_T+BFLT_6D_T+BFLT_6D_T+BFLT_6D_T,610+610+610+610
39XT1621,2,PFLT_F+PFLT_F+PFLT_F,610+610+305,PFLT_F+PFLT_F+PFLT_F,610+610+610
39XT1825,2,PFLT_F+PFLT_F+PFLT_F,610+610+305,PFLT_F+PFLT_F+PFLT_F+PFLT_F,610+610+610+610
39XT1621,5,VFLT_F+VFLT_F+VFLT_F,610+610+305,VFLT_6D_T+VFLT_6D_T+VFLT_6D_T,610+610+610
39XT1825,5,VFLT_F+VFLT_F+VFLT_F,610+610+305,VFLT_6D_T+VFLT_6D_T+VFLT_6D_T+VFLT_6D_T,610+610+610+610
39XT1621,6,XFLT_F+XFLT_F+XFLT_F,610+610+305,XFLT_T+XFLT_T+XFLT_T,610+610+610
39XT1825,6,XFLT_F+XFLT_F+XFLT_F,610+610+305,XFLT_T+XFLT_T+XFLT_T+XFLT_T,610+610+610+610
39XT1621,7,JDFLT_F+JDFLT_F+JDFLT_F,610+610+305,JDFLT_T+JDFLT_T+JDFLT_T,610+610+610
39XT1825,7,JDFLT_F+JDFLT_F+JDFLT_F,610+610+305,JDFLT_T+JDFLT_T+JDFLT_T+JDFLT_T,610+610+610+610
39XT1621,H,BFLT_F_H+BFLT_F_H+BFLT_F_H,610+610+305,BFLT_8D_H+BFLT_8D_H+BFLT_8D_H,610+610+610
39XT1825,H,BFLT_F_H+BFLT_F_H+BFLT_F_H,610+610+305,BFLT_8D_H+BFLT_8D_H+BFLT_8D_H+BFLT_8D_H,610+610+610+610
39XT1822,1,BFLT_F+BFLT_F+BFLT_F,610+610+406,BFLT_6D_T+BFLT_6D_T+BFLT_6D_T+BFLT_3D_T,610+610+610+305
39XT1822,2,PFLT_F+PFLT_F+PFLT_F,610+610+406,PFLT_F+PFLT_F+PFLT_F+PFLT_F,610+610+610+305
39XT1822,5,VFLT_F+VFLT_F+VFLT_F,610+610+406,VFLT_6D_T+VFLT_6D_T+VFLT_6D_T+VFLT_3D_T,610+610+610+305
39XT1822,6,XFLT_F+XFLT_F+XFLT_F,610+610+406,XFLT_T+XFLT_T+XFLT_T+XFLT_T,610+610+610+305
39XT1822,7,JDFLT_F+JDFLT_F+JDFLT_F,610+610+406,JDFLT_T+JDFLT_T+JDFLT_T+JDFLT_T,610+610+610+305
39XT1822,H,BFLT_F_H+BFLT_F_H+BFLT_F_H,610+610+406,BFLT_8D_H+BFLT_8D_H+BFLT_8D_H+BFLT_4D_H,610+610+610+305
39XT2025,1,BFLT_F+BFLT_F+BFLT_F,610+610+610,BFLT_6D_T+BFLT_6D_T+BFLT_6D_T+BFLT_6D_T,610+610+610+610
39XT2125,1,BFLT_F+BFLT_F+BFLT_F,610+610+610,BFLT_6D_T+BFLT_6D_T+BFLT_6D_T+BFLT_6D_T,610+610+610+610
39XT2025,2,PFLT_F+PFLT_F+PFLT_F,610+610+610,PFLT_F+PFLT_F+PFLT_F+PFLT_F,610+610+610+610
39XT2125,2,PFLT_F+PFLT_F+PFLT_F,610+610+610,PFLT_F+PFLT_F+PFLT_F+PFLT_F,610+610+610+610
39XT2025,5,VFLT_F+VFLT_F+VFLT_F,610+610+610,VFLT_6D_T+VFLT_6D_T+VFLT_6D_T+VFLT_6D_T,610+610+610+610
39XT2125,5,VFLT_F+VFLT_F+VFLT_F,610+610+610,VFLT_6D_T+VFLT_6D_T+VFLT_6D_T+VFLT_6D_T,610+610+610+610
39XT2025,6,XFLT_F+XFLT_F+XFLT_F,610+610+610,XFLT_T+XFLT_T+XFLT_T+XFLT_T,610+610+610+610
39XT2125,6,XFLT_F+XFLT_F+XFLT_F,610+610+610,XFLT_T+XFLT_T+XFLT_T+XFLT_T,610+610+610+610
39XT2025,7,JDFLT_F+JDFLT_F+JDFLT_F,610+610+610,JDFLT_T+JDFLT_T+JDFLT_T+JDFLT_T,610+610+610+610
39XT2125,7,JDFLT_F+JDFLT_F+JDFLT_F,610+610+610,JDFLT_T+JDFLT_T+JDFLT_T+JDFLT_T,610+610+610+610
39XT2025,H,BFLT_F_H+BFLT_F_H+BFLT_F_H,610+610+610,BFLT_8D_H+BFLT_8D_H+BFLT_8D_H+BFLT_8D_H,610+610+610+610
39XT2125,H,BFLT_F_H+BFLT_F_H+BFLT_F_H,610+610+610,BFLT_8D_H+BFLT_8D_H+BFLT_8D_H+BFLT_8D_H,610+610+610+610
39XT2226,1,BFLT_F+BFLT_F+BFLT_F+BFLT_F,610+610+610+305,BFLT_6D_T+BFLT_6D_T+BFLT_6D_T+BFLT_6D_T,610+610+610+610
39XT2328,1,BFLT_F+BFLT_F+BFLT_F+BFLT_F,610+610+610+305,BFLT_6D_T+BFLT_6D_T+BFLT_6D_T+BFLT_6D_T+BFLT_3D_T,610+610+610+610+305
39XT2226,2,PFLT_F+PFLT_F+PFLT_F+PFLT_F,610+610+610+305,PFLT_F+PFLT_F+PFLT_F+PFLT_F,610+610+610+610
39XT2328,2,PFLT_F+PFLT_F+PFLT_F+PFLT_F,610+610+610+305,PFLT_F+PFLT_F+PFLT_F+PFLT_F+PFLT_F,610+610+610+610+305
39XT2226,5,VFLT_F+VFLT_F+VFLT_F+VFLT_F,610+610+610+305,VFLT_6D_T+VFLT_6D_T+VFLT_6D_T+VFLT_6D_T,610+610+610+610
39XT2328,5,VFLT_F+VFLT_F+VFLT_F+VFLT_F,610+610+610+305,VFLT_6D_T+VFLT_6D_T+VFLT_6D_T+VFLT_6D_T+VFLT_3D_T,610+610+610+610+305
39XT2226,6,XFLT_F+XFLT_F+XFLT_F+XFLT_F,610+610+610+305,XFLT_T+XFLT_T+XFLT_T+XFLT_T,610+610+610+610
39XT2328,6,XFLT_F+XFLT_F+XFLT_F+XFLT_F,610+610+610+305,XFLT_T+XFLT_T+XFLT_T+XFLT_T+XFLT_T,610+610+610+610+305
39XT2226,7,JDFLT_F+JDFLT_F+JDFLT_F+JDFLT_F,610+610+610+305,JDFLT_T+JDFLT_T+JDFLT_T+JDFLT_T,610+610+610+610
39XT2328,7,JDFLT_F+JDFLT_F+JDFLT_F+JDFLT_F,610+610+610+305,JDFLT_T+JDFLT_T+JDFLT_T+JDFLT_T+JDFLT_T,610+610+610+610+305
39XT2226,H,BFLT_F_H+BFLT_F_H+BFLT_F_H+BFLT_F_H,610+610+610+305,BFLT_8D_H+BFLT_8D_H+BFLT_8D_H+BFLT_8D_H,610+610+610+610
39XT2328,H,BFLT_F_H+BFLT_F_H+BFLT_F_H+BFLT_F_H,610+610+610+305,BFLT_8D_H+BFLT_8D_H+BFLT_8D_H+BFLT_8D_H+BFLT_4D_H,610+610+610+610+305
39XT2330,1,BFLT_F+BFLT_F+BFLT_F+BFLT_F,610+610+610+406,BFLT_6D_T+BFLT_6D_T+BFLT_6D_T+BFLT_6D_T+BFLT_6D_T,610+610+610+610+610
39XT2333,1,BFLT_F+BFLT_F+BFLT_F+BFLT_F,610+610+610+406,BFLT_6D_T+BFLT_6D_T+BFLT_6D_T+BFLT_6D_T+BFLT_6D_T,610+610+610+610+610
39XT2330,2,PFLT_F+PFLT_F+PFLT_F+PFLT_F,610+610+610+406,PFLT_F+PFLT_F+PFLT_F+PFLT_F+PFLT_F,610+610+610+610+610
39XT2333,2,PFLT_F+PFLT_F+PFLT_F+PFLT_F,610+610+610+406,PFLT_F+PFLT_F+PFLT_F+PFLT_F+PFLT_F,610+610+610+610+610
39XT2330,5,VFLT_F+VFLT_F+VFLT_F+VFLT_F,610+610+610+406,VFLT_6D_T+VFLT_6D_T+VFLT_6D_T+VFLT_6D_T+VFLT_6D_T,610+610+610+610+610
39XT2333,5,VFLT_F+VFLT_F+VFLT_F+VFLT_F,610+610+610+406,VFLT_6D_T+VFLT_6D_T+VFLT_6D_T+VFLT_6D_T+VFLT_6D_T,610+610+610+610+610
39XT2330,6,XFLT_F+XFLT_F+XFLT_F+XFLT_F,610+610+610+406,XFLT_T+XFLT_T+XFLT_T+XFLT_T+XFLT_T,610+610+610+610+610
39XT2333,6,XFLT_F+XFLT_F+XFLT_F+XFLT_F,610+610+610+406,XFLT_T+XFLT_T+XFLT_T+XFLT_T+XFLT_T,610+610+610+610+610
39XT2330,7,JDFLT_F+JDFLT_F+JDFLT_F+JDFLT_F,610+610+610+406,JDFLT_T+JDFLT_T+JDFLT_T+JDFLT_T+JDFLT_T,610+610+610+610+610
39XT2333,7,JDFLT_F+JDFLT_F+JDFLT_F+JDFLT_F,610+610+610+406,JDFLT_T+JDFLT_T+JDFLT_T+JDFLT_T+JDFLT_T,610+610+610+610+610
39XT2330,H,BFLT_F_H+BFLT_F_H+BFLT_F_H+BFLT_F_H,610+610+610+406,BFLT_8D_H+BFLT_8D_H+BFLT_8D_H+BFLT_8D_H+BFLT_8D_H,610+610+610+610+610
39XT2333,H,BFLT_F_H+BFLT_F_H+BFLT_F_H+BFLT_F_H,610+610+610+406,BFLT_8D_H+BFLT_8D_H+BFLT_8D_H+BFLT_8D_H+BFLT_8D_H,610+610+610+610+610
39XT2532,1,BFLT_F+BFLT_F+BFLT_F+BFLT_F,610+610+610+610,BFLT_6D_T+BFLT_6D_T+BFLT_6D_T+BFLT_6D_T+BFLT_6D_T,610+610+610+610+610
39XT2532,2,PFLT_F+PFLT_F+PFLT_F+PFLT_F,610+610+610+610,PFLT_F+PFLT_F+PFLT_F+PFLT_F+PFLT_F,610+610+610+610+610
39XT2532,5,VFLT_F+VFLT_F+VFLT_F+VFLT_F,610+610+610+610,VFLT_6D_T+VFLT_6D_T+VFLT_6D_T+VFLT_6D_T+VFLT_6D_T,610+610+610+610+610
39XT2532,H,BFLT_F_H+BFLT_F_H+BFLT_F_H+BFLT_F_H,610+610+610+610,BFLT_8D_H+BFLT_8D_H+BFLT_8D_H+BFLT_8D_H+BFLT_8D_H,610+610+610+610+610
39XT2832,1,BFLT_F+BFLT_F+BFLT_F+BFLT_F+BFLT_F,610+610+610+610+305,BFLT_6D_T+BFLT_6D_T+BFLT_6D_T+BFLT_6D_T+BFLT_6D_T,610+610+610+610+610
39XT2832,2,PFLT_F+PFLT_F+PFLT_F+PFLT_F+PFLT_F,610+610+610+610+305,PFLT_F+PFLT_F+PFLT_F+PFLT_F+PFLT_F,610+610+610+610+610
39XT2832,5,VFLT_F+VFLT_F+VFLT_F+VFLT_F+VFLT_F,610+610+610+610+305,VFLT_6D_T+VFLT_6D_T+VFLT_6D_T+VFLT_6D_T+VFLT_6D_T,610+610+610+610+610
39XT2832,H,BFLT_F_H+BFLT_F_H+BFLT_F_H+BFLT_F_H+BFLT_F_H,610+610+610+610+305,BFLT_8D_H+BFLT_8D_H+BFLT_8D_H+BFLT_8D_H+BFLT_8D_H,610+610+610+610+610
39XT3132,1,BFLT_F+BFLT_F+BFLT_F+BFLT_F+BFLT_F,610+610+610+610+610,BFLT_6D_T+BFLT_6D_T+BFLT_6D_T+BFLT_6D_T+BFLT_6D_T,610+610+610+610+610
39XT3132,2,PFLT_F+PFLT_F+PFLT_F+PFLT_F+PFLT_F,610+610+610+610+610,PFLT_F+PFLT_F+PFLT_F+PFLT_F+PFLT_F,610+610+610+610+610
39XT3132,5,VFLT_F+VFLT_F+VFLT_F+VFLT_F+VFLT_F,610+610+610+610+610,VFLT_6D_T+VFLT_6D_T+VFLT_6D_T+VFLT_6D_T+VFLT_6D_T,610+610+610+610+610
39XT3132,H,BFLT_F_H+BFLT_F_H+BFLT_F_H+BFLT_F_H+BFLT_F_H,610+610+610+610+610,BFLT_8D_H+BFLT_8D_H+BFLT_8D_H+BFLT_8D_H+BFLT_8D_H,610+610+610+610+610
39XT3438,1,BFLT_F+BFLT_F+BFLT_F+BFLT_F+BFLT_F+BFLT_F,610+610+610+610+610+305,BFLT_6D_T+BFLT_6D_T+BFLT_6D_T+BFLT_6D_T+BFLT_6D_T+BFLT_6D_T,610+610+610+610+610+610
39XT3438,2,PFLT_F+PFLT_F+PFLT_F+PFLT_F+PFLT_F+PFLT_F,610+610+610+610+610+305,PFLT_F+PFLT_F+PFLT_F+PFLT_F+PFLT_F+PFLT_F,610+610+610+610+610+610
39XT3438,5,VFLT_F+VFLT_F+VFLT_F+VFLT_F+VFLT_F+VFLT_F,610+610+610+610+610+305,VFLT_6D_T+VFLT_6D_T+VFLT_6D_T+VFLT_6D_T+VFLT_6D_T+VFLT_6D_T,610+610+610+610+610+610
39XT3438,H,BFLT_F_H+BFLT_F_H+BFLT_F_H+BFLT_F_H+BFLT_F_H,610+610+610+610+610+305,BFLT_8D_H+BFLT_8D_H+BFLT_8D_H+BFLT_8D_H+BFLT_8D_H+BFLT_8D_H,610+610+610+610+610+610
39XT3841,1,BFLT_F+BFLT_F+BFLT_F+BFLT_F+BFLT_F+BFLT_F,610+610+610+610+610+610,BFLT_6D_T+BFLT_6D_T+BFLT_6D_T+BFLT_6D_T+BFLT_6D_T+BFLT_6D_T+BFLT_3D_T,610+610+610+610+610+610+305
39XT3841,2,PFLT_F+PFLT_F+PFLT_F+PFLT_F+PFLT_F+PFLT_F,610+610+610+610+610+610,PFLT_F+PFLT_F+PFLT_F+PFLT_F+PFLT_F+PFLT_F+PFLT_F,610+610+610+610+610+610+305
39XT3841,5,VFLT_F+VFLT_F+VFLT_F+VFLT_F+VFLT_F+VFLT_F,610+610+610+610+610+610,VFLT_6D_T+VFLT_6D_T+VFLT_6D_T+VFLT_6D_T+VFLT_6D_T+VFLT_6D_T+VFLT_3D_T,610+610+610+610+610+610+305
39XT3841,H,BFLT_F_H+BFLT_F_H+BFLT_F_H+BFLT_F_H+BFLT_F_H,610+610+610+610+610+610,BFLT_8D_H+BFLT_8D_H+BFLT_8D_H+BFLT_8D_H+BFLT_8D_H+BFLT_8D_H+BFLT_4D_H,610+610+610+610+610+610+305
39XT4444,1,BFLT_F+BFLT_F+BFLT_F+BFLT_F+BFLT_F+BFLT_F+BFLT_F,610+610+610+610+610+610+610,BFLT_6D_T+BFLT_6D_T+BFLT_6D_T+BFLT_6D_T+BFLT_6D_T+BFLT_6D_T+BFLT_6D_T,610+610+610+610+610+610+610
39XT4444,2,PFLT_F+PFLT_F+PFLT_F+PFLT_F+PFLT_F+PFLT_F+PFLT_F,610+610+610+610+610+610+610,PFLT_F+PFLT_F+PFLT_F+PFLT_F+PFLT_F+PFLT_F+PFLT_F,610+610+610+610+610+610+610
39XT4444,5,VFLT_F+VFLT_F+VFLT_F+VFLT_F+VFLT_F+VFLT_F+VFLT_F,610+610+610+610+610+610+610,VFLT_6D_T+VFLT_6D_T+VFLT_6D_T+VFLT_6D_T+VFLT_6D_T+VFLT_6D_T+VFLT_6D_T,610+610+610+610+610+610+610
39XT4444,H,BFLT_F_H+BFLT_F_H+BFLT_F_H+BFLT_F_H+BFLT_F_H+BFLT_F_H+BFLT_F_H,610+610+610+610+610+610+610,BFLT_8D_H+BFLT_8D_H+BFLT_8D_H+BFLT_8D_H+BFLT_8D_H+BFLT_8D_H+BFLT_8D_H,610+610+610+610+610+610+610
39XT4750,1,BFLT_F+BFLT_F+BFLT_F+BFLT_F+BFLT_F+BFLT_F+BFLT_F+BFLT_F,610+610+610+610+610+610+610+305,BFLT_6D_T+BFLT_6D_T+BFLT_6D_T+BFLT_6D_T+BFLT_6D_T+BFLT_6D_T+BFLT_6D_T+BFLT_6D_T,610+610+610+610+610+610+610+610
39XT4750,2,PFLT_F+PFLT_F+PFLT_F+PFLT_F+PFLT_F+PFLT_F+PFLT_F+PFLT_F,610+610+610+610+610+610+610+305,PFLT_F+PFLT_F+PFLT_F+PFLT_F+PFLT_F+PFLT_F+PFLT_F+PFLT_F,610+610+610+610+610+610+610+610
39XT4750,5,VFLT_F+VFLT_F+VFLT_F+VFLT_F+VFLT_F+VFLT_F+VFLT_F+VFLT_F,610+610+610+610+610+610+610+305,VFLT_6D_T+VFLT_6D_T+VFLT_6D_T+VFLT_6D_T+VFLT_6D_T+VFLT_6D_T+VFLT_6D_T+VFLT_6D_T,610+610+610+610+610+610+610+610
39XT4750,H,BFLT_F_H+BFLT_F_H+BFLT_F_H+BFLT_F_H+BFLT_F_H+BFLT_F_H+BFLT_F_H+BFLT_F_H,610+610+610+610+610+610+610+305,BFLT_8D_H+BFLT_8D_H+BFLT_8D_H+BFLT_8D_H+BFLT_8D_H+BFLT_8D_H+BFLT_8D_H+BFLT_8D_H,610+610+610+610+610+610+610+610
