{
  "meta.ahu.package": {
    "key": "meta.ahu.package",
    "option": {
      "options": [
        "NR",
        "OT",
        "CKD"
      ],
      "labels": [
        "Enlance",
        "Wooden",
        "CKD"
      ],
      "clabels": [
        "缠绕膜",
        "米字格",
        "CKD专用包装"
      ],
      "relatedKeys": [
        "meta.ahu.delivery"
      ],
      "valueOptionMap": {
        "Section": [
          0,
          1
        ],
        "CKD": [
          2
        ]
      }
    },
    "defaultValue": "NR"
  },
  "meta.ahu.exskinw": {
    "key": "meta.ahu.exskinw",
    "option": {
      "options": [
        "0.5mm",
        "0.8mm",
        "1.0mm",
        "1.2mm"
      ],
      "labels": [
        "default",
        "0.8mm",
        "1.0mm",
        "1.2mm"
      ],
      "clabels": [
        "默认",
        "0.8mm",
        "1.0mm",
        "1.2mm"
      ],
      "relatedKeys": [
        "meta.ahu.exskinm",
        "meta.ahu.panelinsulation"
      ],
      "valueOptionMap": {
        "GI#PU": [
          0,
          1,
          2,
          3
        ],
        "stainless#PU": [
          0,
          1,
          2,
          3
        ],
        "paintedColdRolledSteel#PU": [
          3
        ],
        "prePaintedSteal#PU": [
          0,
          1,
          2
        ],
        "HDPPrePaintedSteel#PU": [
          0,
          1,
          2
        ],

        "GI#fiberGlass": [
          2,
          3
        ],
        "stainless#fiberGlass": [
          2,
          3
        ],
        "paintedColdRolledSteel#fiberGlass": [
          3
        ],
        "prePaintedSteal#fiberGlass": [
          2
        ],
        "HDPPrePaintedSteel#fiberGlass": [
          2
        ],

        "GI#mineralWool": [
          2,
          3
        ],
        "stainless#mineralWool": [
          2,
          3
        ],
        "paintedColdRolledSteel#mineralWool": [
          3
        ],
        "prePaintedSteal#mineralWool": [
          2
        ],
        "HDPPrePaintedSteel#mineralWool": [
          2
        ]

      },
      "enableRelatedKeys": [
        "meta.ahu.product"
      ],
      "enableValueMap": {
        "39XT": null
      }
    },
    "defaultValue": "0.8mm"
  },
  "meta.ahu.product": {
    "key": "meta.ahu.product",
    "option": {
      "options": [
        "39CQ",
        "39G",
        "39XT"
      ],
      "labels": [
        "39CQ",
        "39G",
        "39XT"
      ],
      "clabels": [
        "39CQ",
        "39G",
        "39XT"
      ],
      "relatedKeys": [],
      "valueOptionMap": {}
    },
    "defaultValue": "39CQ"
  },
  "meta.ahu.inskinm": {
    "key": "meta.ahu.inskinm",
    "option": {
      "options": [
        "GlSteel",
        "prePaintedSteal",
        "stainless",
        "HDPPrePaintedSteel",
        "paintedColdRolledSteel"
      ],
      "labels": [
        "G.l Steel",
        "Pre-painted Steel",
        "Stainless",
        "High-durability Polyester(HDP)",
        "Painted Cold Rolled Steel"
      ],
      "clabels": [
        "镀锌",
        "彩钢板",
        "不锈钢板",
        "高耐久性聚酯面板",
        "冷轧烘漆"
      ],
      "relatedKeys": [],
      "valueOptionMap": {},
      "enableRelatedKeys": [
        "meta.ahu.product"
      ],
      "enableValueMap": {
        "39XT": null
      }
    },
    "defaultValue": "GlSteel"
  },
  "meta.ahu.inskincolor": {
    "key": "meta.ahu.inskincolor",
    "option": {
      "options": [
        "white",
        "none"
      ],
      "labels": [
        "White",
        "None"
      ],
      "clabels": [
        "白色",
        "无"
      ],
      "relatedKeys": [
        "meta.ahu.inskinm"
      ],
      "valueOptionMap": {
        "HDPPrePaintedSteel": [
          1
        ],
        "prePaintedSteal": [
          0
        ],
        "stainless": [
          1
        ],
        "paintedColdRolledSteel": [
          0
        ],
        "GlSteel": [
          1
        ]
      },
      "enableRelatedKeys": [
        "meta.ahu.inskinm"
      ],
      "enableValueMap": {
        "!stainless": null,
        "!GlSteel": null
      }
    },
    "defaultValue": "white"
  },
  "meta.ahu.exskincolor": {
    "key": "meta.ahu.exskincolor",
    "option": {
      "options": [
        "white",
        "none"
      ],
      "labels": [
        "White",
        "None"
      ],
      "clabels": [
        "白色",
        "无"
      ],
      "relatedKeys": [
        "meta.ahu.exskinm"
      ],
      "valueOptionMap": {
        "HDPPrePaintedSteel": [
          0
        ],
        "prePaintedSteal": [
          0
        ],
        "stainless": [
          1
        ],
        "paintedColdRolledSteel": [
          0
        ],
        "GI": [
          1
        ]
      },
      "enableRelatedKeys": [
        "meta.ahu.exskinm"
      ],
      "enableValueMap": {
        "!stainless": null,
        "!GlSteel": null
      }
    },
    "defaultValue": "white"
  },
  "meta.ahu.doororientation": {
    "key": "meta.ahu.doororientation",
    "option": {
      "options": [
        "left",
        "right"
      ],
      "labels": [
        "Left",
        "Right"
      ],
      "clabels": [
        "左向",
        "右向"
      ],
      "relatedKeys": [],
      "valueOptionMap": {}
    },
    "defaultValue": "left"
  },
  "meta.ahu.pipeorientation": {
    "key": "meta.ahu.pipeorientation",
    "option": {
      "options": [
        "left",
        "right",
        "bilateral"
      ],
      "labels": [
        "Left",
        "Right",
        "bilateral"
      ],
      "clabels": [
        "左向",
        "右向",
        "双侧"
      ],
      "relatedKeys": [
        "meta.ahu.height"
      ],
      "valueOptionMap": {
        "\u003e3400": [
          2
        ],
        "\u003c3400": [
          0,
          1
        ]
      }
    },
    "defaultValue": "left"
  },
  "meta.ahu.panelinsulation": {
    "key": "meta.ahu.panelinsulation",
    "option": {
      "options": [
        "PU",
        "fiberGlass",
        "mineralWool"
      ],
      "labels": [
        "PU",
        "Fiber Glass",
        "Mineral Wool"
      ],
      "clabels": [
        "PU发泡",
        "玻璃纤维",
        "岩棉"
      ],
      "relatedKeys": [
      ],
      "valueOptionMap": {
      }
    },
    "defaultValue": "PU"
  },
  "meta.ahu.exskinm": {
    "key": "meta.ahu.exskinm",
    "option": {
      "options": [
        "GI",
        "prePaintedSteal",
        "stainless",
        "HDPPrePaintedSteel",
        "paintedColdRolledSteel"
      ],
      "labels": [
        "G.l Steel",
        "Pre-painted Steel",
        "Stainless",
        "High-durability Polyester(HDP)",
        "Painted Cold Rolled Steel"
      ],
      "clabels": [
        "镀锌",
        "彩钢板",
        "不锈钢板",
        "高耐久性聚酯面板",
        "冷轧烘漆"
      ],
      "relatedKeys": [],
      "valueOptionMap": {},
      "enableRelatedKeys": [
        "meta.ahu.product"
      ],
      "enableValueMap": {
        "39XT": null
      }
    },
    "defaultValue": "GlSteel"
  },
  "meta.ahu.inskinw": {
    "key": "meta.ahu.inskinw",
    "option": {
      "options": [
        "0.5mm",
        "0.8mm",
        "1.0mm",
        "1.2mm"
      ],
      "labels": [
        "default",
        "0.8mm",
        "1.0mm",
        "1.2mm"
      ],
      "clabels": [
        "默认",
        "0.8mm",
        "1.0mm",
        "1.2mm"
      ],
      "relatedKeys": [
        "meta.ahu.inskinm",
        "meta.ahu.panelinsulation"
      ],
      "valueOptionMap": {
        "GlSteel#PU": [
          0,
          1,
          2,
          3
        ],
        "stainless#PU": [
          0,
          1,
          2,
          3
        ],
        "paintedColdRolledSteel#PU": [
          3
        ],
        "prePaintedSteal#PU": [
          0,
          1,
          2
        ],
        "HDPPrePaintedSteel#PU": [
          0,
          1,
          2
        ],

        "GlSteel#fiberGlass": [
          2,
          3
        ],
        "stainless#fiberGlass": [
          2,
          3
        ],
        "paintedColdRolledSteel#fiberGlass": [
          3
        ],
        "prePaintedSteal#fiberGlass": [
          2
        ],
        "HDPPrePaintedSteel#fiberGlass": [
          2
        ],

        "GlSteel#mineralWool": [
          2,
          3
        ],
        "stainless#mineralWool": [
          2,
          3
        ],
        "paintedColdRolledSteel#mineralWool": [
          3
        ],
        "prePaintedSteal#mineralWool": [
          2
        ],
        "HDPPrePaintedSteel#mineralWool": [
          2
        ]

      },
      "enableRelatedKeys": [
        "meta.ahu.product"
      ],
      "enableValueMap": {
        "39XT": null
      }
    },
    "defaultValue": "0.5mm"
  },
  "meta.ahu.baseType": {
    "key": "meta.ahu.baseType",
    "option": {
      "options": [
        "powderCoatedCR"
      ],
      "labels": [
        "Powder Coated CR"
      ],
      "clabels": [
        "喷涂"
      ],
      "relatedKeys": [
      ],
      "valueOptionMap": {
      }
    },
    "defaultValue": "powderCoatedCR"
  },
  "meta.ahu.unitConfig": {
    "key": "meta.ahu.unitConfig",
    "option": {
      "options": [
        "horizontal",
        "vertical",
        "wheelHR",
        "plateHR"
      ],
      "labels": [
        "Horizontal",
        "Vertical",
        "Wheel Heat Recycle(Double Layer)",
        "Plate Heat Recycle(Double Layer)"
      ],
      "clabels": [
        "卧式",
        "立式",
        "转轮热回收",
        "板式热回收"
      ],
      "relatedKeys": [],
      "valueOptionMap": {}
    },
    "defaultValue": "horizontal"
  },
  "meta.ahu.inWindDirection": {
    "key": "meta.ahu.inWindDirection",
    "option": {
      "options": [
        "right"
      ],
      "labels": [
        "Right"
      ],
      "clabels": [
        "右进风"
      ],
      "relatedKeys": [],
      "valueOptionMap": {}
    },
    "defaultValue": "right"
  },
  "meta.ahu.delivery": {
    "key": "meta.ahu.delivery",
    "option": {
      "options": [
        "SectionOTFR",
        "Section",
        "CKD",
        "SectionOT"
      ],
      "labels": [
        "Section OT/FR(Open Top container/Flat Rack container)",
        "Section(Normal Container)",
        "CKD",
        "Section(Open Top Container)"
      ],
      "clabels": [
        "Section OT/FR",
        "分段",
        "CKD",
        "开顶箱"
      ],
      "relatedKeys": [
        "meta.ahu.height",
        "meta.ahu.ISPRERAIN",
        "meta.ahu.topDamper"
      ],
      "valueOptionMap": {
        "\u003e2100#!~#!~": [
          0,
          2
        ],
        "\u003e1900#true#!~": [
          0,
          2
        ],
        "\u003e1900#!~#true": [
          0,
          2
        ],
        "\u003e1700#true#true": [
          0,
          2
        ]
      }
    },
    "defaultValue": "Section"
  },
  "meta.ahu.voltage": {
    "key": "meta.ahu.voltage",
    "option": {
      "options": [
        "380V-3Ph-50Hz",
        "380V-3Ph-60Hz",
        "230V-3Ph-50Hz",
        "230V-3Ph-60Hz",
        "400V-3Ph-50Hz",
        "400V-3Ph-60Hz",
        "415V-3Ph-50Hz",
        "415V-3Ph-60Hz",
        "460V-3Ph-50Hz",
        "460V-3Ph-60Hz",
        "200V-3Ph-50Hz"
      ],
      "labels": [
        "380V-3Ph-50Hz",
        "380V-3Ph-60Hz",
        "230V-3Ph-50Hz",
        "230V-3Ph-60Hz",
        "400V-3Ph-50Hz",
        "400V-3Ph-60Hz",
        "415V-3Ph-50Hz",
        "415V-3Ph-60Hz",
        "460V-3Ph-50Hz",
        "460V-3Ph-60Hz",
        "200V-3Ph-50Hz"
      ],
      "clabels": [
        "380V-3Ph-50Hz",
        "380V-3Ph-60Hz",
        "230V-3Ph-50Hz",
        "230V-3Ph-60Hz",
        "400V-3Ph-50Hz",
        "400V-3Ph-60Hz",
        "415V-3Ph-50Hz",
        "415V-3Ph-60Hz",
        "460V-3Ph-50Hz",
        "460V-3Ph-60Hz",
        "200V-3Ph-50Hz"
      ],
      "relatedKeys": [],
      "valueOptionMap": {}
    },
    "defaultValue": "380V-3Ph-50Hz"
  },
  "meta.ahu.ISPRERAIN": {
    "key": "meta.ahu.ISPRERAIN",
    "option": {
      "options": [
      ],
      "labels": [
      ],
      "clabels": [
      ],
      "relatedKeys": [],
      "valueOptionMap": {},
      "enableRelatedKeys": [
        "meta.ahu.height",
        "meta.ahu.product"
      ],
      "enableValueMap": {
        "\u003e2500#!~": null,
        "!~#39G": null,
        "!~#39XT": null
      }
    },
    "defaultValue": ""
  },
  "meta.ahu.deformation": {
    "key": "meta.ahu.deformation",
    "option": {
      "options": [
      ],
      "labels": [
      ],
      "clabels": [
      ],
      "relatedKeys": [],
      "valueOptionMap": {},
      "enableRelatedKeys": [
        "meta.ahu.deformation"
      ],
      "enableValueMap": {
        "false": null
      }
    },
    "defaultValue": ""
  },
  "meta.ahu.nsheight": {
    "key": "meta.ahu.nsheight",
    "option": {
      "options": [
      ],
      "labels": [
      ],
      "clabels": [
      ],
      "relatedKeys": [],
      "valueOptionMap": {},
      "enableRelatedKeys": [
        "meta.ahu.deformation",
        "ns.ahu.deformation"
      ],
      "enableValueMap": {
        "false#!~": null,
        "true#false": null
      }
    },
    "defaultValue": ""
  },
  "meta.ahu.nswidth": {
    "key": "meta.ahu.nswidth",
    "option": {
      "options": [
      ],
      "labels": [
      ],
      "clabels": [
      ],
      "relatedKeys": [],
      "valueOptionMap": {},
      "enableRelatedKeys": [
        "meta.ahu.deformation",
        "ns.ahu.deformation"
      ],
      "enableValueMap": {
        "false#!~": null,
        "true#false": null
      }
    },
    "defaultValue": ""
  },
  "meta.ahu.deformationSerial": {
    "key": "meta.ahu.deformationSerial",
    "option": {
      "options": [
      ],
      "labels": [
      ],
      "clabels": [
      ],
      "relatedKeys": [],
      "valueOptionMap": {},
      "enableRelatedKeys": [
        "meta.ahu.deformation",
        "ns.ahu.deformation"
      ],
      "enableValueMap": {
        "false#!~": null,
        "true#false": null
      }
    },
    "defaultValue": ""
  },
  "meta.ahu.deformationPrice": {
    "key": "meta.ahu.deformationPrice",
    "option": {
      "options": [
      ],
      "labels": [
      ],
      "clabels": [
      ],
      "relatedKeys": [],
      "valueOptionMap": {},
      "enableRelatedKeys": [
        "meta.ahu.deformation",
        "ns.ahu.deformation"
      ],
      "enableValueMap": {
        "false#!~": null,
        "true#false": null
      }
    },
    "defaultValue": ""
  }
}