{
"meta.section.wheelHeatRecycle.Brand": {
    "key": "meta.section.wheelHeatRecycle.Brand",
    "option": {
      "options": [
        "B",
        "A"
      ],
      "labels": [
        "DRI",
        "Standard supplier"
      ],
      "clabels": [
        "百瑞",
        "标准供应商"
      ]
    },
    "defaultValue": "A"
  },
  "meta.section.wheelHeatRecycle.HeatRecoveryType": {
    "key": "meta.section.wheelHeatRecycle.HeatRecoveryType",
    "option": {
      "options": [
        "2"
      ],
      "labels": [
        "Heat Wheel"
      ],
      "clabels": [
        "热转轮"
      ]
    },
    "defaultValue": "2"
  },
  "meta.section.wheelHeatRecycle.EfficiencyType": {
    "key": "meta.section.wheelHeatRecycle.EfficiencyType",
    "option": {
      "options": [
        "1"
      ],
      "labels": [
        "Total (Heating) Capacity"
      ],
      "clabels": [
        "全热"
      ]
    },
    "defaultValue": "1"
  },
  "meta.section.wheelHeatRecycle.Model": {
    "key": "meta.section.wheelHeatRecycle.Model",
    "option": {
      "options": [
        "1",
        "2",
        "3"
      ],
      "labels": [
        "Molecular",
        "Silica gel",
        "Pure aluminum"
      ],
      "clabels": [
        "分子筛",
        "硅胶",
        "纯铝"
      ],
      "relatedKeys": [
        "meta.section.wheelHeatRecycle.Brand"
      ],
      "valueOptionMap": {
        "A": [
          0,
          1
        ],
        "B": [
          0
        ]
      }
    },
    "defaultValue": "1"
  }, 
  "meta.section.wheelHeatRecycle.WheelDepth": {
    "key": "meta.section.wheelHeatRecycle.WheelDepth",
    "option": {
      "options": [
        "1",
        "2"
      ],
      "labels": [
        "200",
        "270"
      ],
      "clabels": [
        "200",
        "270"
      ],
      "relatedKeys": [
        "meta.section.wheelHeatRecycle.Brand"
      ],
      "valueOptionMap": {
        "A": [
          0
        ],
        "B": [
          0,
          1
        ]
      }
    },
    "defaultValue": "1"
  }, 
  "meta.section.wheelHeatRecycle.Regions": {
    "key": "meta.section.wheelHeatRecycle.Regions",
    "option": {
      "options": [
        "15"
      ],
      "labels": [
        "China"
      ],
      "clabels": [
        "中国"
      ]
    },
    "defaultValue": "15"
  }, 
  "meta.section.wheelHeatRecycle.Installation": {
    "key": "meta.section.wheelHeatRecycle.Installation",
    "option": {
      "options": [
        "1",
        "2"
      ],
      "labels": [
        "Install on field",
        "Install by user"
      ],
      "clabels": [
        "提供现场安装",
        "不提供安装"
      ]
    },
    "defaultValue": "1"
  },
  "meta.section.wheelHeatRecycle.BracketM": {
    "key": "meta.section.wheelHeatRecycle.BracketM",
    "option": {
      "options": [
        "2",
        "3",
        "1"
      ],
      "labels": [
        "GI Steel",
        "Stainless Steel",
        "Painted cold rolled steel"
      ],
      "clabels": [
        "镀锌钢板",
        "不锈钢板",
        "冷轧钢板"
      ]
    },
    "defaultValue": "1"
  }
 
}