{
  "meta.section.sprayHumidifier.supplier": {
    "key": "meta.section.sprayHumidifier.supplier",
    "option": {
      "options": [
        "SDS"
      ],
      "labels": [
         "Standard Supplier"
      ],
      "clabels": [
         "标准供应商"
      ],
      "enableRelatedkeys":[
      	"ahu.coolingCoil"
      ],
      "enableValueMap":{
      	"ahu.sprayHumidifier":null
      }
    },
    "defaultValue": "SDS"
  },
  "meta.section.sprayHumidifier.ControlM": {
    "key": "meta.section.sprayHumidifier.ControlM",
    "option": {
      "options": [
        "MC"
      ],
      "labels": [
        "Manual"
      ],
      "clabels": [
        "手动"
      ]
    },
    "defaultValue": "MC"
  },
  
  "meta.section.sprayHumidifier.Eliminator": {
    "key": "meta.section.sprayHumidifier.Eliminator",
    "option": {
      "options": [
        "SS",
        "GS",
        "AS"
      ],
      "labels": [
        "Stainless",
        "G.l Steel",
        "Aluminum"
      ],
      "clabels": [
        "不锈钢挡水器",
        "镀锌板挡水器",
        "铝合金挡水器"
      ]      
    },
    "defaultValue": "GS"
  },
   "meta.section.sprayHumidifier.Material": {
    "key": "meta.section.sprayHumidifier.Material",
    "option": {
      "options": [
        "GS",
        "SS"
      ],
      "labels": [
        "G.l Steel",
        "Stainless Steel"
      ],
      "clabels": [
        "镀锌钢板",
        "不锈钢板"
      ],
	  "relationKeys": [
		"pre#meta.section.coolingCoil.drainpanMaterial",
		"pre#meta.section.coolingCoil.drainpanMaterial"
	   ],
		"relationMap": [
			{
				"giSteel": [
					0
				]
			},
			{
				"stainlessSteel": [
					1
				]
			}
		]
    },
    "defaultValue": "GS"
  },
   "meta.section.sprayHumidifier.BaffleM": {
    "key": "meta.section.sprayHumidifier.BaffleM",
    "option": {
     "options": [
        "GS",
        "SS",
        "PS"
      ],
      "labels": [
        "G.l Steel",
        "Stainless Steel",
        "Cold Rolled Steel"
      ],
      "clabels": [
        "镀锌钢板",
        "不锈钢板",
        "冷轧钢板"
      ]
    },
    "defaultValue": "GS"
  },
  "meta.section.sprayHumidifier.nsSupplier": {
    "key": "meta.section.sprayHumidifier.nsSupplier",
    "option": {
      "options": [
        "NSS"
      ],
      "labels": [
        "no Standard Supplier"
      ],
      "clabels": [
        "非标供应商"
      ]
    },
    "defaultValue": "NSS"
  },
  "meta.section.sprayHumidifier.nsSupplier1": {
    "key": "meta.section.sprayHumidifier.nsSupplier1",
    "option": {
      "options": [
        "STAND"
      ],
      "labels": [
        "STAND"
      ],
      "clabels": [
        "STAND"
      ]
    },
    "defaultValue": "STAND"
  }
}