ahu,area,damperWidth,damperHeight,height,width
39CQ0608,0.23,756,322.5,690,890
39CQ0609,0.32,856,322.5,690,990
39CQ0711,0.46,1056,322.5,790,1190
39CQ0811,0.57,1056,322.5,890,1190
39CQ0912,0.69,1156,322.5,990,1290
39CQ0913,0.76,1256,480,990,1390
39CQ0914,0.84,1356,480,990,1490
39CQ1015,1.06,1456,480,1090,1590
39CQ1117,1.31,1656,480,1190,1790
39CQ1317,1.68,1656,480,1390,1790
39CQ1418,1.9,1756,637.5,1490,1890
39CQ1420,2.14,1956,637.5,1490,2090
39CQ1621,2.62,2056,637.5,1690,2190
39CQ1822,3.26,2156,795,1890,2290
39CQ1825,3.75,2456,795,1890,2590
39CQ2025,4.04,2456,795,2090,2590
39CQ2125,4.33,2456,952.5,2190,2590
39CQ2226,4.82,2556,952.5,2290,2690
39CQ2328,5.39,2756,952.5,2390,2890
39CQ2330,5.81,2956,952.5,2390,3090
39CQ2333,6.44,3256,952.5,2390,3390
39CQ2532,8.06,3156,952.5,2590,3290
39CQ2832,8.97,3156,952.5,2890,3290
39CQ3132,9.89,3156,1267.5,3190,3290
39CQ3438,12.16,3756,1267.5,3490,3890
39G0608,0.23,756,322.5,690,890
39G0609,0.32,856,322.5,690,990
39G0711,0.46,1056,322.5,790,1190
39G0811,0.57,1056,322.5,890,1190
39G0912,0.69,1156,322.5,990,1290
39G0913,0.76,1256,480,990,1390
39G0914,0.84,1356,480,990,1490
39G1015,1.06,1456,480,1090,1590
39G1117,1.31,1656,480,1190,1790
39G1317,1.68,1656,480,1390,1790
39G1418,1.9,1756,637.5,1490,1890
39G1420,2.14,1956,637.5,1490,2090
39G1621,2.62,2056,637.5,1690,2190
39G1822,3.26,2156,795,1890,2290
39G1825,3.75,2456,795,1890,2590
39G2025,4.04,2456,795,2090,2590
39G2125,4.33,2456,952.5,2190,2590
39G2226,4.82,2556,952.5,2290,2690
39G2328,5.39,2756,952.5,2390,2890
39G2330,5.81,2956,952.5,2390,3090
39G2333,6.44,3256,952.5,2390,3390
39G2532,8.06,3156,952.5,2590,3290
39G2832,8.97,3156,952.5,2890,3290
39G3132,9.89,3156,1267.5,3190,3290
39G3438,12.16,3756,1267.5,3490,3890
39XT0608,0.23,756,322.5,690,890
39XT0609,0.32,856,322.5,690,990
39XT0711,0.46,1056,322.5,790,1190
39XT0811,0.57,1056,322.5,890,1190
39XT0912,0.69,1156,322.5,990,1290
39XT0913,0.76,1256,480,990,1390
39XT0914,0.84,1356,480,990,1490
39XT1015,1.06,1456,480,1090,1590
39XT1117,1.31,1656,480,1190,1790
39XT1317,1.68,1656,480,1390,1790
39XT1418,1.9,1756,637.5,1490,1890
39XT1420,2.14,1956,637.5,1490,2090
39XT1621,2.62,2056,637.5,1690,2190
39XT1822,3.26,2156,795,1890,2290
39XT1825,3.75,2456,795,1890,2590
39XT2025,4.04,2456,795,2090,2590
39XT2125,4.33,2456,952.5,2190,2590
39XT2226,4.82,2556,952.5,2290,2690
39XT2328,5.39,2756,952.5,2390,2890
39XT2330,5.81,2956,952.5,2390,3090
39XT2333,6.44,3256,952.5,2390,3390
39XT2532,8.06,3156,952.5,2590,3290
39XT2832,8.97,3156,952.5,2890,3290
39XT3132,9.89,3156,1267.5,3190,3290
39XT3438,12.16,3756,1267.5,3490,3890
