{
    "direction":2,
    "subPanels":[
        {
            "direction":1,
            "panelType":"0",
            "panelWidth":23,
            "panelLength":2,
            "id": "ManualID_0",
            "panelConnector":"",
            "subPanelIndex":1,
            "frameLine":{
                "type":0,
                "lineConnector":"",
                "lineLength":2
            },
            "subPanels":[
                {
                    "direction":0,
                    "panelType":"0",
                    "panelWidth":12,
                    "panelLength":2,
                    "id": "ManualID_0_0",
                    "panelConnector":"",
                    "subPanelIndex":1,
                    "frameLine":{
                        "type":0
                    }
                },
                {
                    "direction":0,
                    "panelType":"0",
                    "panelWidth":11,
                    "panelLength":2,
                    "id": "ManualID_0_1",
                    "panelConnector":"",
                    "subPanelIndex":2,
                    "frameLine":{
                        "type":0
                    }
                }
            ]
        },
        {
            "direction":2,
            "panelType":"0",
            "panelWidth":23,
            "panelLength":28,
            "id": "ManualID_1",
            "panelConnector":"",
            "subPanelIndex":2,
            "frameLine":{
                "type":"1"
            },
            "subPanels":[
                {
                    "direction":1,
                    "panelType":"0",
                    "panelWidth":23,
                    "panelLength":26,
                    "id": "ManualID_1_0",
                    "panelConnector":"",
                    "subPanelIndex":2,
                    "frameLine":{
                        "type":"1"
                    },
                    "subPanels":[
                        {
                            "direction":0,
                            "panelType":"4",
                            "panelWidth":11,
                            "panelLength":26,
                            "id": "ManualID_1_0_0",
                            "panelConnector":"",
                            "subPanelIndex":3,
                            "frameLine":{
                                "type":0
                            }
                        },
                        {
                            "direction":2,
                            "panelType":"0",
                            "panelWidth":12,
                            "panelLength":26,
                            "id": "ManualID_1_0_1",
                            "panelConnector":"",
                            "subPanelIndex":4,
                            "frameLine":{
                                "type":0,
                                "lineConnector":"",
                                "lineLength":12
                            },
                            "subPanels":[
                                {
                                    "direction":0,
                                    "panelType":"0",
                                    "panelWidth":12,
                                    "panelLength":7,
                                    "id": "ManualID_1_0_1_0",
                                    "panelConnector":"",
                                    "subPanelIndex":4,
                                    "frameLine":{
                                        "type":0
                                    }
                                },
                                {
                                    "direction":2,
                                    "panelType":"0",
                                    "panelWidth":12,
                                    "panelLength":19,
                                    "id": "ManualID_1_0_1_1",
                                    "panelConnector":"",
                                    "subPanelIndex":5,
                                    "frameLine":{
                                        "type":0,
                                        "lineConnector":"",
                                        "lineLength":12
                                    },
                                    "subPanels":[
                                        {
                                            "direction":0,
                                            "panelType":"0",
                                            "panelWidth":12,
                                            "panelLength":9,
                                            "id": "ManualID_1_0_1_1_0",
                                            "panelConnector":"",
                                            "subPanelIndex":5,
                                            "frameLine":{
                                                "type":0
                                            }
                                        },
                                        {
                                            "direction":0,
                                            "panelType":"0",
                                            "panelWidth":12,
                                            "panelLength":10,
                                            "id": "ManualID_1_0_1_1_1",
                                            "panelConnector":"",
                                            "subPanelIndex":6,
                                            "frameLine":{
                                                "type":0
                                            }
                                        }
                                    ]
                                }
                            ]
                        }
                    ]
                },
                {
                    "direction":1,
                    "panelType":"0",
                    "panelWidth":23,
                    "panelLength":2,
                    "id": "ManualID_1_1",
                    "panelConnector":"",
                    "subPanelIndex":5,
                    "frameLine":{
                        "type":0,
                        "lineConnector":"",
                        "lineLength":2
                    },
                    "subPanels":[
                        {
                            "direction":0,
                            "panelType":"0",
                            "panelWidth":12,
                            "panelLength":2,
                            "id": "ManualID_1_1_0",
                            "panelConnector":"",
                            "subPanelIndex":7,
                            "frameLine":{
                                "type":0
                            }
                        },
                        {
                            "direction":0,
                            "panelType":"0",
                            "panelWidth":11,
                            "panelLength":2,
                            "id": "ManualID_1_1_1",
                            "panelConnector":"",
                            "subPanelIndex":8,
                            "frameLine":{
                                "type":0
                            }
                        }
                    ]
                }
            ]
        }
    ],
    "panelWidth":23,
    "panelLength":30,
    "id": "ManualID",
    "panelType":"0",
    "cutDirection":"horizontal",
    "frameLine":{
        "type":"1"
    },
    "memo":"",
    "panelConnector":"",
    "subPanelIndex":1
}