seq,row,circuit,fpi,bigAhu
1,1,HF,10,
2,1,HF,12,
3,1,HF,14,
4,2,HF,10,
5,2,FL,10,1
6,2,HF,12,
7,2,FL,12,1
8,2,HF,14,
9,2,FL,14,1
10,3,FL,10,
11,3,FL,12,
12,3,FL,14,
13,4,FL,10,1
14,4,FL,12,1
15,4,FL,14,1
16,5,FL,10,
17,5,FL,12,
18,5,FL,14,
19,6,FL,10,1
20,6,DB,10,1
21,6,FL,12,1
22,6,DB,12,1
23,6,FL,14,1
24,6,DB,14,1
25,7,FL,10,
26,7,DB,10,
27,7,FL,12,
28,7,DB,12,
29,7,FL,14,
30,7,DB,14,
31,8,DB,10,1
32,8,DB,12,1
33,8,DB,14,1
34,3,HF,10,
35,3,HF,12,
36,3,HF,14,
37,4,HF,10,
38,4,HF,12,
39,4,HF,14,
40,5,HF,10,
41,5,HF,12,
42,5,HF,14,
43,8,FL,10,1
44,8,FL,12,1
45,8,FL,14,1
46,10,DB,10,
47,10,DB,12,
48,10,DB,14,
49,12,DB,10,
50,12,DB,12,
51,12,DB,14,
52,6,HF,10,
53,6,HF,12,
54,6,HF,14,
55,7,HF,10,
56,7,HF,12,
57,7,HF,14,
58,8,HF,10,
59,8,HF,12,
60,8,HF,14,
61,10,FL,10,
62,10,FL,12,
63,10,FL,14,
64,12,FL,10,
65,12,FL,12,
66,12,FL,14,
